Date,Open,High,Low,Close,Volume,Adj Close
2014-07-16,13.40,13.65,12.88,12.95,4239700,12.95
2014-07-15,13.65,14.40,13.38,13.72,5582200,13.72
2014-07-14,13.26,13.98,13.23,13.75,6708700,13.75
2014-07-11,13.13,13.47,13.13,13.18,3817100,13.18
2014-07-10,13.30,13.67,13.03,13.41,6119400,13.41
2014-07-09,13.48,13.62,13.07,13.08,6407800,13.08
2014-07-08,13.40,13.98,13.32,13.68,7131300,13.68
2014-07-07,14.14,14.79,13.62,13.85,12023900,13.85
2014-07-04,14.03,14.03,13.40,14.03,13302000,14.03
2014-07-03,12.43,12.87,12.36,12.75,4714200,12.75
2014-07-02,12.21,12.58,12.03,12.51,3931000,12.51
2014-07-01,12.30,12.39,12.16,12.24,1944500,12.24
2014-06-30,12.36,12.38,12.17,12.30,1917000,12.30
2014-06-27,11.86,12.48,11.75,12.27,3482100,12.27
2014-06-26,11.60,11.89,11.60,11.85,1780200,11.85
2014-06-25,11.77,11.77,11.55,11.64,1385000,11.64
2014-06-24,11.69,11.91,11.55,11.86,1719200,11.86
2014-06-23,11.48,11.88,11.43,11.76,1748800,11.76
2014-06-20,11.33,11.68,11.23,11.53,1605900,11.53
2014-06-19,12.00,12.08,11.20,11.35,1999300,11.35
2014-06-18,12.39,12.41,11.91,12.02,3734800,12.02
2014-06-17,13.01,13.33,12.38,12.39,6402900,12.39
2014-06-16,12.30,12.30,12.30,12.30,000,12.30
2014-06-13,12.30,12.30,12.30,12.30,000,12.30
2014-06-12,12.30,12.30,12.30,12.30,000,12.30
2014-06-11,12.30,12.30,12.30,12.30,000,12.30
2014-06-10,12.30,12.30,12.30,12.30,000,12.30
2014-06-09,12.30,12.30,12.30,12.30,000,12.30
2014-06-06,12.30,12.30,12.30,12.30,000,12.30
2014-06-05,12.30,12.30,12.30,12.30,000,12.30
2014-06-04,12.28,12.34,11.98,12.30,2131900,12.30
2014-06-03,12.38,12.50,12.15,12.31,2723700,12.31
2014-06-02,12.50,12.50,12.50,12.50,000,12.50
2014-05-30,12.58,12.58,12.13,12.50,3432300,12.50
2014-05-29,12.52,12.77,12.24,12.65,5191600,12.65
2014-05-28,12.18,12.80,12.05,12.58,8255400,12.58
2014-05-27,12.14,12.37,11.90,12.17,6788200,12.17
2014-05-26,11.36,12.43,11.36,12.43,9249400,12.43
2014-05-23,11.12,11.30,10.92,11.30,1071300,11.30
2014-05-22,11.09,11.29,11.01,11.12,970800,11.12
2014-05-21,10.94,11.11,10.86,11.03,463500,11.03
2014-05-20,10.89,11.15,10.88,10.99,570200,10.99
2014-05-19,10.89,10.95,10.72,10.89,678700,10.89
2014-05-16,10.67,10.91,10.58,10.85,708000,10.85
2014-05-15,11.30,11.33,10.80,10.85,1022000,10.85
2014-05-14,11.14,11.32,11.13,11.28,711700,11.28
2014-05-13,11.19,11.32,11.12,11.15,576700,11.15
2014-05-12,11.03,11.35,11.00,11.25,936700,11.25
2014-05-09,10.96,11.16,10.84,11.03,751300,11.03
2014-05-08,10.77,11.14,10.76,10.98,718600,10.98
2014-05-07,11.15,11.36,10.88,10.91,1429600,10.91
2014-05-06,10.85,11.33,10.80,11.11,1127200,11.11
2014-05-05,10.70,11.05,10.52,11.05,1170100,11.05
2014-05-02,10.71,10.71,10.71,10.71,000,10.71
2014-05-01,10.71,10.71,10.71,10.71,000,10.71
2014-04-30,10.51,10.82,10.44,10.71,720100,10.71
2014-04-29,10.34,10.51,10.20,10.50,635200,10.50
2014-04-28,11.15,11.15,10.20,10.35,1668000,10.35
2014-04-25,11.16,11.21,10.98,11.17,975000,11.17
2014-04-24,11.15,11.33,11.12,11.21,569500,11.12
2014-04-23,11.25,11.42,11.16,11.16,732700,11.07
2014-04-22,11.55,11.60,11.19,11.28,1156500,11.19
2014-04-21,11.70,11.88,11.49,11.56,1277900,11.47
2014-04-18,11.75,11.88,11.58,11.83,1152700,11.74
2014-04-17,11.63,11.75,11.54,11.70,911200,11.61
2014-04-16,11.81,11.81,11.46,11.63,1582400,11.54
2014-04-15,11.97,11.98,11.65,11.74,1240000,11.65
2014-04-14,11.64,12.01,11.60,11.93,2048400,11.83
2014-04-11,11.64,11.75,11.45,11.59,1337800,11.50
2014-04-10,11.59,12.00,11.52,11.73,2621000,11.64
2014-04-09,11.41,11.70,11.36,11.62,1795800,11.53
2014-04-08,11.20,11.37,11.08,11.34,1159300,11.25
2014-04-07,11.28,11.28,11.28,11.28,000,11.19
2014-04-04,11.20,11.30,11.08,11.28,1109900,11.19
2014-04-03,11.16,11.28,11.02,11.20,1164200,11.11
2014-04-02,11.36,11.36,11.00,11.15,1351900,11.06
2014-04-01,11.07,11.32,11.00,11.31,905200,11.22
2014-03-31,11.27,11.27,10.90,11.07,1391900,10.98
2014-03-28,11.90,12.05,11.11,11.21,2304900,11.12
2014-03-27,12.39,12.39,11.87,11.89,2467900,11.79
2014-03-26,12.39,12.68,12.21,12.30,2496000,12.20
2014-03-25,12.22,12.50,11.93,12.50,2566700,12.40
2014-03-24,12.21,12.30,12.11,12.24,1384300,12.14
2014-03-21,11.93,12.26,11.66,12.21,2152100,12.11
2014-03-20,12.53,12.53,11.92,11.92,2097500,11.82
2014-03-19,12.40,12.60,12.09,12.47,2230900,12.37
2014-03-18,12.45,12.89,12.35,12.43,3482600,12.33
2014-03-17,12.09,12.45,12.00,12.39,2391800,12.29
2014-03-14,11.94,12.15,11.79,12.08,2233100,11.98
2014-03-13,11.80,12.30,11.74,12.08,2851200,11.98
2014-03-12,12.50,12.89,11.90,12.42,4755900,12.32
2014-03-11,11.97,12.30,11.20,12.30,3842600,12.20
2014-03-10,12.80,12.80,11.91,12.11,4305100,12.01
2014-03-07,12.45,13.17,12.45,12.88,4823600,12.78
2014-03-06,12.88,13.02,12.40,12.50,6480200,12.40
2014-03-05,13.40,13.96,13.01,13.16,8155700,13.05
2014-03-04,12.66,13.78,12.35,13.56,7917300,13.45
2014-03-03,12.65,13.33,12.47,12.90,6327700,12.80
2014-02-28,12.48,12.70,11.70,12.59,7402000,12.49
2014-02-27,12.85,13.88,12.66,12.84,11494300,12.74
2014-02-26,12.16,12.80,11.91,12.70,7554900,12.60
2014-02-25,13.20,13.45,11.93,12.07,9363700,11.97
2014-02-24,13.51,13.54,12.88,13.26,7152500,13.15
2014-02-21,14.10,14.10,14.10,14.10,000,13.99
2014-02-20,14.12,14.38,13.38,14.10,9598300,13.99
2014-02-19,15.88,16.10,14.21,14.48,15305500,14.36
2014-02-18,14.00,15.36,13.83,15.36,12552500,15.24
2014-02-17,13.64,14.21,13.58,13.96,11134900,13.85
2014-02-14,13.23,13.56,13.15,13.55,6905100,13.44
2014-02-13,13.83,14.14,13.30,13.30,10160700,13.19
2014-02-12,13.81,14.09,13.61,13.94,9028400,13.83
2014-02-11,14.19,14.34,13.68,13.90,12250200,13.79
2014-02-10,13.98,14.59,13.61,14.20,16295300,14.09
2014-02-07,13.06,14.25,13.02,13.88,16294500,13.77
2014-02-06,13.02,13.02,13.02,13.02,000,12.92
2014-02-05,13.02,13.02,13.02,13.02,000,12.92
2014-02-03,13.02,13.02,13.02,13.02,000,12.92
2014-01-31,13.02,13.02,13.02,13.02,000,12.92
2014-01-30,12.10,13.02,11.64,13.02,12387700,12.92
2014-01-29,11.01,11.84,10.91,11.84,12603800,11.74
2014-01-28,10.76,10.76,10.76,10.76,660800,10.67
2014-01-27,9.78,9.78,9.78,9.78,118500,9.70
2014-01-24,8.89,8.89,8.89,8.89,000,8.82
2014-01-23,8.89,8.89,8.89,8.89,000,8.82
2014-01-22,8.89,8.89,8.89,8.89,000,8.82
2014-01-21,8.89,8.89,8.89,8.89,000,8.82
2014-01-20,8.89,8.89,8.89,8.89,000,8.82
2014-01-17,8.89,8.89,8.89,8.89,000,8.82
2014-01-16,8.89,8.89,8.89,8.89,000,8.82
2014-01-15,8.89,8.89,8.89,8.89,000,8.82
2014-01-14,8.89,8.89,8.89,8.89,000,8.82
2014-01-13,8.89,8.89,8.89,8.89,000,8.82
2014-01-10,8.89,8.89,8.89,8.89,000,8.82
2014-01-09,8.89,8.89,8.89,8.89,000,8.82
2014-01-08,8.89,8.89,8.89,8.89,000,8.82
2014-01-07,8.89,8.89,8.89,8.89,000,8.82
2014-01-06,8.89,8.89,8.89,8.89,000,8.82
2014-01-03,8.89,8.89,8.89,8.89,000,8.82
2014-01-02,8.89,8.89,8.89,8.89,000,8.82
2014-01-01,8.89,8.89,8.89,8.89,000,8.82
2013-12-31,8.89,8.89,8.89,8.89,000,8.82
2013-12-30,8.89,8.89,8.89,8.89,000,8.82
2013-12-27,8.89,8.89,8.89,8.89,000,8.82
2013-12-26,8.89,8.89,8.89,8.89,000,8.82
2013-12-25,8.89,8.89,8.89,8.89,000,8.82
2013-12-24,8.89,8.89,8.89,8.89,000,8.82
2013-12-23,8.89,8.89,8.89,8.89,000,8.82
2013-12-20,8.89,8.89,8.89,8.89,000,8.82
2013-12-19,8.89,8.89,8.89,8.89,000,8.82
2013-12-18,8.89,8.89,8.89,8.89,000,8.82
2013-12-17,8.89,8.89,8.89,8.89,000,8.82
2013-12-16,8.89,8.89,8.89,8.89,000,8.82
2013-12-13,8.89,8.89,8.89,8.89,000,8.82
2013-12-12,8.89,8.89,8.89,8.89,000,8.82
2013-12-11,8.89,8.89,8.89,8.89,000,8.82
2013-12-10,8.89,8.89,8.89,8.89,000,8.82
2013-12-09,8.89,8.89,8.89,8.89,000,8.82
2013-12-06,8.89,8.89,8.89,8.89,000,8.82
2013-12-05,8.89,8.89,8.89,8.89,000,8.82
2013-12-04,8.89,8.89,8.89,8.89,000,8.82
2013-12-03,8.89,8.89,8.89,8.89,000,8.82
2013-12-02,8.89,8.89,8.89,8.89,000,8.82
2013-11-29,8.89,8.89,8.89,8.89,000,8.82
2013-11-28,8.89,8.89,8.89,8.89,000,8.82
2013-11-27,8.89,8.89,8.89,8.89,000,8.82
2013-11-26,8.89,8.89,8.89,8.89,000,8.82
2013-11-25,8.89,8.89,8.89,8.89,000,8.82
2013-11-22,8.89,8.89,8.89,8.89,000,8.82
2013-11-21,8.89,8.89,8.89,8.89,000,8.82
2013-11-20,8.89,8.89,8.89,8.89,000,8.82
2013-11-19,8.89,8.89,8.89,8.89,000,8.82
2013-11-18,8.89,8.89,8.89,8.89,000,8.82
2013-11-15,8.89,8.89,8.89,8.89,000,8.82
2013-11-14,8.89,8.89,8.89,8.89,000,8.82
2013-11-13,8.89,8.89,8.89,8.89,000,8.82
2013-11-12,8.89,8.89,8.89,8.89,000,8.82
2013-11-11,8.89,8.89,8.89,8.89,000,8.82
2013-11-08,8.91,8.95,8.75,8.89,545600,8.82
2013-11-07,8.87,9.02,8.77,8.93,464300,8.86
2013-11-06,8.92,9.08,8.88,8.93,686600,8.86
2013-11-05,8.99,9.15,8.77,9.10,801100,9.03
2013-11-04,8.83,9.05,8.62,9.02,705000,8.95
2013-11-01,8.87,8.88,8.74,8.88,253000,8.81
2013-10-31,8.83,8.94,8.62,8.93,644700,8.86
2013-10-30,8.72,8.91,8.41,8.91,984200,8.84
2013-10-29,9.25,9.25,8.48,8.61,1119400,8.54
2013-10-28,9.15,9.29,8.94,9.14,578600,9.07
2013-10-25,9.22,9.34,9.12,9.20,875300,9.13
2013-10-24,9.28,9.30,9.05,9.22,984100,9.15
2013-10-23,9.65,9.66,9.26,9.28,1393600,9.21
2013-10-22,9.63,9.65,9.48,9.59,1621100,9.51
2013-10-21,9.65,9.71,9.40,9.65,2283700,9.57
2013-10-18,9.99,9.99,9.55,9.67,3587000,9.59
2013-10-17,9.37,10.11,9.37,10.10,6711000,10.02
2013-10-16,9.36,9.51,9.20,9.29,1461500,9.22
2013-10-15,9.40,9.40,9.21,9.37,1223900,9.29
2013-10-14,9.12,9.36,9.12,9.33,1108000,9.26
2013-10-11,9.19,9.23,9.11,9.20,959600,9.13
2013-10-10,9.30,9.34,9.07,9.16,1065500,9.09
2013-10-09,9.33,9.33,9.21,9.28,705400,9.21
2013-10-08,9.22,9.34,9.18,9.32,834800,9.25
2013-10-07,9.24,9.24,9.24,9.24,000,9.17
2013-10-04,9.24,9.24,9.24,9.24,000,9.17
2013-10-03,9.24,9.24,9.24,9.24,000,9.17
2013-10-02,9.24,9.24,9.24,9.24,000,9.17
2013-10-01,9.24,9.24,9.24,9.24,000,9.17
2013-09-30,9.16,9.39,9.15,9.24,304600,9.17
2013-09-27,9.10,9.33,9.07,9.19,668900,9.12
2013-09-26,9.32,9.45,9.09,9.13,697600,9.06
2013-09-25,9.47,9.49,9.33,9.37,867300,9.29
2013-09-24,9.34,9.42,9.31,9.37,923200,9.29
2013-09-23,9.30,9.39,9.23,9.37,582200,9.29
2013-09-20,9.29,9.29,9.29,9.29,000,9.22
2013-09-18,9.26,9.38,9.26,9.29,453000,9.22
2013-09-17,9.45,9.63,9.24,9.29,1014900,9.22
2013-09-16,9.63,9.73,9.52,9.52,807500,9.44
2013-09-13,9.60,9.70,9.53,9.62,1078100,9.54
2013-09-12,9.64,9.79,9.52,9.56,1087600,9.48
2013-09-11,9.47,9.73,9.40,9.68,2147000,9.60
2013-09-10,9.49,9.54,9.28,9.51,1561600,9.43
2013-09-09,9.54,9.58,9.40,9.48,1259200,9.40
2013-09-06,9.42,9.61,9.40,9.48,942700,9.40
2013-09-05,9.43,9.59,9.35,9.45,798700,9.37
2013-09-04,9.57,9.60,9.36,9.44,535500,9.36
2013-09-03,9.33,9.65,9.33,9.49,758400,9.41
2013-09-02,9.34,9.49,9.21,9.35,531000,9.27
2013-08-30,9.54,9.71,9.19,9.34,1167100,9.27
2013-08-29,9.58,9.97,9.53,9.58,795000,9.50
2013-08-28,9.68,9.72,9.47,9.58,1024500,9.50
2013-08-27,9.65,9.73,9.64,9.72,948500,9.64
2013-08-26,9.51,9.77,9.48,9.65,1245400,9.57
2013-08-23,9.64,9.81,9.29,9.52,1237700,9.44
2013-08-22,9.52,9.72,9.47,9.55,1138200,9.47
2013-08-21,9.53,9.56,9.35,9.51,645200,9.43
2013-08-20,9.74,9.75,9.44,9.49,1022900,9.41
2013-08-19,9.45,9.77,9.42,9.66,1156000,9.58
2013-08-16,9.60,9.62,9.35,9.54,1544800,9.46
2013-08-15,9.85,9.93,9.48,9.60,2101100,9.52
2013-08-14,9.82,10.12,9.74,9.86,2428800,9.78
2013-08-13,9.80,9.97,9.68,9.82,1307900,9.74
2013-08-12,9.46,9.98,9.46,9.75,1598700,9.67
2013-08-09,9.49,9.66,9.20,9.55,1895500,9.47
2013-08-08,9.25,9.48,9.25,9.47,1715200,9.39
2013-08-07,9.25,9.44,9.14,9.27,1830200,9.20
2013-08-06,9.16,9.32,9.07,9.25,1336200,9.18
2013-08-05,9.17,9.28,9.09,9.21,1179100,9.14
2013-08-02,9.18,9.34,9.03,9.17,1058500,9.10
2013-08-01,8.98,9.17,8.89,9.15,835300,9.08
2013-07-31,9.10,9.19,8.93,9.04,824900,8.97
2013-07-30,8.98,9.11,8.83,9.05,707700,8.98
2013-07-29,9.02,9.18,8.85,8.95,569500,8.88
2013-07-26,9.07,9.32,8.90,9.07,1057000,9.00
2013-07-25,9.18,9.18,8.92,9.11,1281700,9.04
2013-07-24,9.10,9.36,8.80,9.15,1470300,9.08
2013-07-23,8.92,9.27,8.78,9.20,2437900,9.13
2013-07-22,8.88,9.00,8.50,8.95,2068200,8.88
2013-07-19,8.99,9.48,8.95,9.06,3352500,8.99
2013-07-18,8.88,8.88,8.65,8.76,664700,8.69
2013-07-17,9.04,9.04,8.73,8.88,738600,8.81
2013-07-16,8.91,9.19,8.85,9.02,954400,8.95
2013-07-15,8.91,9.03,8.77,8.94,919400,8.87
2013-07-12,9.15,9.15,8.79,8.91,1230300,8.84
2013-07-11,8.77,8.96,8.65,8.95,1776900,8.88
2013-07-10,8.68,8.79,8.51,8.78,1085900,8.71
2013-07-09,8.54,8.85,8.43,8.70,1354200,8.63
2013-07-08,8.62,9.22,8.61,8.77,3279500,8.70
2013-07-05,8.39,8.76,8.20,8.56,1365000,8.49
2013-07-04,8.20,8.43,8.02,8.29,1060500,8.22
2013-07-03,8.43,8.43,8.00,8.23,1016400,8.16
2013-07-02,8.43,8.43,8.23,8.42,632400,8.35
2013-07-01,8.30,8.31,8.14,8.28,535100,8.21
2013-06-28,8.38,8.39,8.12,8.26,502700,8.19
2013-06-27,8.42,8.52,8.18,8.38,836500,8.31
2013-06-26,8.29,8.48,8.03,8.42,841200,8.35
2013-06-25,8.41,8.55,7.88,8.29,1608000,8.22
2013-06-24,9.38,9.55,8.45,8.75,1624900,8.68
2013-06-21,9.29,9.48,8.92,9.39,877700,9.31
2013-06-20,9.30,9.38,9.16,9.29,613600,9.22
2013-06-19,9.45,9.51,9.10,9.30,923100,9.23
2013-06-18,9.57,9.68,9.32,9.41,1237500,9.33
2013-06-17,9.57,9.62,9.20,9.47,1064700,9.39
2013-06-14,9.46,9.58,9.46,9.55,1116900,9.47
2013-06-13,9.90,9.95,9.31,9.52,2127300,9.44
2013-06-12,10.34,10.34,10.34,10.34,000,10.26
2013-06-11,10.34,10.34,10.34,10.34,000,10.26
2013-06-10,10.34,10.34,10.34,10.34,000,10.26
2013-06-07,10.62,10.93,10.30,10.34,3002800,10.26
2013-06-06,10.75,11.28,10.72,10.76,4725900,10.54
2013-06-05,10.58,10.62,10.41,10.62,1628000,10.40
2013-06-04,10.45,10.55,10.23,10.55,1818800,10.33
2013-06-03,10.39,10.60,10.27,10.35,723500,10.14
2013-05-31,10.54,10.55,10.29,10.40,952300,10.19
2013-05-30,10.48,10.55,10.30,10.48,1018800,10.27
2013-05-29,10.32,10.48,10.32,10.45,937400,10.24
2013-05-28,10.55,10.55,10.20,10.32,1019600,10.11
2013-05-27,10.35,10.60,10.35,10.46,794900,10.25
2013-05-24,10.46,10.47,10.26,10.46,689500,10.25
2013-05-23,10.59,10.60,10.24,10.31,949600,10.10
2013-05-22,10.71,10.75,10.46,10.51,1260000,10.29
2013-05-21,10.66,10.74,10.44,10.67,1704500,10.45
2013-05-20,10.34,10.70,10.34,10.66,2221600,10.44
2013-05-17,10.30,10.35,10.20,10.31,1097600,10.10
2013-05-16,10.18,10.38,10.17,10.33,1485900,10.12
2013-05-15,10.36,10.37,10.17,10.23,926000,10.02
2013-05-14,10.27,10.39,10.15,10.33,1204600,10.12
2013-05-13,10.41,10.42,10.18,10.27,1594900,10.06
2013-05-10,10.65,10.80,10.25,10.45,2686500,10.24
2013-05-09,10.41,10.55,10.17,10.34,3247200,10.13
2013-05-08,10.20,10.74,10.11,10.56,4103500,10.34
2013-05-07,10.79,10.85,10.30,10.34,4836900,10.13
2013-05-06,11.07,11.07,10.60,10.82,6296100,10.60
2013-05-03,9.90,10.14,9.88,10.06,1129700,9.85
2013-05-02,9.65,10.37,9.48,10.00,2242300,9.80
2013-05-01,9.44,9.44,9.44,9.44,000,9.25
2013-04-30,9.44,9.44,9.44,9.44,000,9.25
2013-04-29,9.44,9.44,9.44,9.44,000,9.25
2013-04-26,9.52,9.61,9.36,9.44,493500,9.25
2013-04-25,9.68,9.68,9.48,9.50,497600,9.31
2013-04-24,9.75,9.75,9.54,9.61,340600,9.41
2013-04-23,9.82,9.86,9.50,9.55,363700,9.35
2013-04-22,9.75,9.80,9.65,9.76,456900,9.56
2013-04-19,9.51,9.74,9.51,9.73,621800,9.53
2013-04-18,9.55,9.63,9.51,9.56,146600,9.36
2013-04-17,9.58,9.66,9.47,9.57,188100,9.37
2013-04-16,9.54,9.57,9.42,9.57,251800,9.37
2013-04-15,9.69,9.69,9.45,9.53,207700,9.33
2013-04-12,9.68,9.75,9.56,9.57,332100,9.37
2013-04-11,9.65,9.68,9.57,9.63,244700,9.43
2013-04-10,9.61,9.76,9.51,9.60,241900,9.40
2013-04-09,9.65,9.65,9.53,9.61,214900,9.41
2013-04-08,9.51,9.59,9.33,9.57,313400,9.37
2013-04-05,9.57,9.57,9.57,9.57,000,9.37
2013-04-04,9.57,9.57,9.57,9.57,000,9.37
2013-04-03,9.68,9.88,9.53,9.57,268500,9.37
2013-04-02,9.65,9.66,9.48,9.58,331700,9.38
2013-04-01,9.57,9.69,9.46,9.60,386800,9.40
2013-03-29,9.76,9.76,9.48,9.48,364500,9.29
2013-03-28,10.05,10.05,9.64,9.69,558000,9.49
2013-03-27,9.98,10.21,9.93,10.01,465200,9.81
2013-03-26,10.25,10.25,9.93,9.98,756200,9.78
2013-03-25,10.15,10.24,10.13,10.19,367500,9.98
2013-03-22,10.25,10.25,10.10,10.17,897400,9.96
2013-03-21,10.23,10.26,10.07,10.18,917700,9.97
2013-03-20,10.18,10.38,10.16,10.23,916400,10.02
2013-03-19,10.30,10.30,10.04,10.18,273400,9.97
2013-03-18,10.09,10.26,10.08,10.14,531700,9.93
2013-03-15,10.15,10.20,9.96,10.08,484500,9.87
2013-03-14,9.86,10.27,9.84,10.09,779700,9.88
2013-03-13,10.08,10.10,9.09,9.94,802600,9.74
2013-03-12,10.51,10.57,9.80,10.05,1148700,9.84
2013-03-11,10.51,10.60,10.30,10.57,754000,10.35
2013-03-08,10.68,10.73,10.48,10.57,1008600,10.35
2013-03-07,10.81,10.89,10.63,10.70,2248100,10.48
2013-03-06,10.39,11.17,10.38,11.03,4360400,10.80
2013-03-05,10.40,10.45,10.19,10.26,1579700,10.05
2013-03-04,10.58,10.58,10.30,10.38,1095300,10.17
2013-03-01,10.58,10.64,10.42,10.62,910200,10.40
2013-02-28,10.31,10.60,10.31,10.48,512200,10.27
2013-02-27,10.58,10.58,10.35,10.45,688500,10.24
2013-02-26,10.53,10.64,10.47,10.48,977100,10.27
2013-02-25,10.58,10.70,10.45,10.53,719200,10.31
2013-02-22,10.40,10.88,10.40,10.46,836500,10.25
2013-02-21,10.56,10.62,10.39,10.45,782300,10.24
2013-02-20,10.52,10.65,10.44,10.64,908000,10.42
2013-02-19,10.60,10.78,10.48,10.52,746900,10.30
2013-02-18,10.42,10.75,10.41,10.69,1170200,10.47
2013-02-15,10.40,10.40,10.40,10.40,000,10.19
2013-02-14,10.40,10.40,10.40,10.40,000,10.19
2013-02-13,10.40,10.40,10.40,10.40,000,10.19
2013-02-12,10.40,10.40,10.40,10.40,000,10.19
2013-02-11,10.40,10.40,10.40,10.40,000,10.19
2013-02-08,10.38,10.44,10.30,10.40,351700,10.19
2013-02-07,10.44,10.47,10.29,10.30,247100,10.09
2013-02-06,10.20,10.40,10.19,10.38,330500,10.17
2013-02-05,10.38,10.38,10.19,10.26,367700,10.05
2013-02-04,10.22,10.45,10.22,10.35,575800,10.14
2013-02-01,10.38,10.41,10.28,10.30,524100,10.09
2013-01-31,10.42,10.48,10.30,10.33,356500,10.12
2013-01-30,10.45,10.59,10.39,10.42,506500,10.21
2013-01-29,10.38,10.49,10.38,10.47,325000,10.26
2013-01-28,10.19,10.48,10.19,10.44,286400,10.23
2013-01-25,10.18,10.29,10.18,10.23,285000,10.02
2013-01-24,10.67,10.67,10.25,10.26,601100,10.05
2013-01-23,10.72,10.74,10.51,10.60,481300,10.38
2013-01-22,11.08,11.08,10.57,10.72,671700,10.50
2013-01-21,10.96,11.03,10.78,10.93,826600,10.71
2013-01-18,10.80,10.99,10.60,10.94,2350500,10.72
2013-01-17,10.49,11.20,10.31,10.90,1181800,10.68
2013-01-16,10.78,10.88,10.40,10.53,1038000,10.31
2013-01-15,10.51,10.85,10.50,10.77,1934300,10.55
2013-01-14,10.16,10.53,10.16,10.48,668800,10.27
2013-01-11,10.56,10.56,10.21,10.22,990000,10.01
2013-01-10,10.48,10.62,10.43,10.56,1248700,10.34
2013-01-09,10.53,10.59,10.33,10.49,859800,10.28
2013-01-08,10.50,10.55,10.34,10.52,916600,10.30
2013-01-07,10.39,10.53,10.26,10.51,909200,10.29
2013-01-04,10.70,10.78,10.28,10.40,1260200,10.19
2013-01-03,10.64,10.64,10.64,10.64,000,10.42
2013-01-02,10.64,10.64,10.64,10.64,000,10.42
2013-01-01,10.64,10.64,10.64,10.64,000,10.42
2012-12-31,10.65,10.74,10.42,10.64,1360400,10.42
2012-12-28,10.90,10.95,10.36,10.65,3543400,10.43
2012-12-27,10.01,10.85,9.99,10.85,3792600,10.63
2012-12-26,9.69,9.89,9.69,9.86,803200,9.66
2012-12-25,9.63,9.87,9.63,9.78,922300,9.58
2012-12-24,9.44,9.77,9.44,9.65,504300,9.45
2012-12-21,9.56,9.62,9.38,9.49,421200,9.30
2012-12-20,9.68,9.68,9.44,9.55,266600,9.35
2012-12-19,9.64,9.73,9.54,9.61,316700,9.41
2012-12-18,9.58,9.74,9.53,9.63,368000,9.43
2012-12-17,9.70,9.70,9.51,9.64,475400,9.44
2012-12-14,9.38,9.64,9.20,9.60,589600,9.40
2012-12-13,9.56,9.56,9.26,9.27,192700,9.08
2012-12-12,9.56,9.65,9.28,9.41,253300,9.22
2012-12-11,9.62,9.67,9.54,9.54,384300,9.34
2012-12-10,9.48,9.84,9.40,9.78,1237700,9.58
2012-12-07,9.19,9.81,9.19,9.75,777400,9.55
2012-12-06,9.55,9.55,9.16,9.32,485600,9.13
2012-12-05,8.87,9.60,8.85,9.56,942600,9.36
2012-12-04,8.83,8.89,8.64,8.87,267100,8.69
2012-12-03,8.60,9.25,8.60,8.79,354400,8.61
2012-11-30,8.72,8.86,8.45,8.70,177200,8.52
2012-11-29,9.06,9.07,8.70,8.72,210400,8.54
2012-11-28,9.67,9.67,8.88,9.00,273100,8.82
2012-11-27,10.14,10.14,9.59,9.59,146300,9.39
2012-11-26,10.03,10.14,9.99,10.03,75900,9.82
2012-11-23,9.94,10.24,9.94,10.05,111500,9.84
2012-11-22,10.09,10.11,9.94,10.03,86200,9.82
2012-11-21,10.12,10.15,9.83,10.02,149900,9.81
2012-11-20,10.27,10.27,10.01,10.03,117500,9.82
2012-11-19,10.17,10.20,9.97,10.17,133200,9.96
2012-11-16,10.30,10.30,9.85,10.17,142100,9.96
2012-11-15,10.27,10.27,9.81,9.88,264400,9.68
2012-11-14,10.37,10.37,10.12,10.21,120600,10.00
2012-11-13,10.62,10.62,10.23,10.30,278000,10.09
2012-11-12,10.61,10.77,10.48,10.60,257900,10.38
2012-11-09,10.70,10.70,10.40,10.65,296500,10.43
2012-11-08,10.98,10.98,10.62,10.62,225900,10.40
2012-11-07,10.70,10.84,10.70,10.79,214800,10.57
2012-11-06,10.81,10.85,10.65,10.75,171000,10.53
2012-11-05,10.85,10.85,10.71,10.78,207900,10.56
2012-11-02,11.10,11.10,10.75,10.83,359900,10.61
2012-11-01,10.91,11.13,10.89,11.00,367100,10.77
2012-10-31,10.90,11.30,10.63,11.03,933400,10.80
2012-10-30,10.89,10.90,10.73,10.82,169400,10.60
2012-10-29,10.99,10.99,10.60,10.85,201600,10.63
2012-10-26,11.23,11.32,10.75,10.89,401100,10.67
2012-10-25,11.38,11.38,11.14,11.25,241700,11.02
2012-10-24,11.26,11.34,11.17,11.32,437600,11.09
2012-10-23,11.17,11.29,11.17,11.20,186900,10.97
2012-10-22,11.24,11.27,11.15,11.25,149700,11.02
2012-10-19,11.29,11.30,11.21,11.25,194500,11.02
2012-10-18,11.35,11.35,11.15,11.29,362600,11.06
2012-10-17,11.39,11.39,11.07,11.22,344300,10.99
2012-10-16,11.25,11.29,11.11,11.21,233300,10.98
2012-10-15,11.12,11.36,11.10,11.14,193200,10.91
2012-10-12,11.15,11.30,11.12,11.17,283000,10.94
2012-10-11,11.41,11.53,11.12,11.21,450600,10.98
2012-10-10,11.46,11.55,11.30,11.55,845200,11.31
2012-10-09,11.72,11.72,11.30,11.50,947800,11.26
2012-10-08,12.00,12.00,11.28,11.46,1165200,11.23
2012-10-05,11.11,11.11,11.11,11.11,000,10.88
2012-10-04,11.11,11.11,11.11,11.11,000,10.88
2012-10-03,11.11,11.11,11.11,11.11,000,10.88
2012-10-02,11.11,11.11,11.11,11.11,000,10.88
2012-10-01,11.11,11.11,11.11,11.11,000,10.88
2012-09-28,11.11,11.11,11.11,11.11,000,10.88
2012-09-27,10.50,11.27,10.50,11.11,1144100,10.88
2012-09-26,10.90,10.90,10.43,10.50,444900,10.29
2012-09-25,11.00,11.01,10.77,10.93,258300,10.71
2012-09-24,10.69,11.35,10.69,11.04,390300,10.81
2012-09-21,10.80,10.99,10.69,10.70,304500,10.48
2012-09-20,11.26,11.26,10.70,10.78,271100,10.56
2012-09-19,11.27,11.30,11.10,11.24,228100,11.01
2012-09-18,11.40,11.47,11.20,11.20,240700,10.97
2012-09-17,11.73,11.84,11.36,11.42,306500,11.19
2012-09-14,11.68,11.79,11.48,11.75,466000,11.51
2012-09-13,11.79,11.84,11.53,11.57,479900,11.33
2012-09-12,11.83,11.96,11.67,11.79,480400,11.55
2012-09-11,11.88,11.88,11.75,11.80,348000,11.56
2012-09-10,12.01,12.22,11.79,11.88,625600,11.64
2012-09-07,11.59,11.96,11.59,11.94,1253000,11.70
2012-09-06,11.41,11.64,11.38,11.59,390000,11.35
2012-09-05,11.35,11.50,11.25,11.43,323000,11.20
2012-09-04,11.24,11.64,11.24,11.47,474100,11.24
2012-09-03,11.04,11.38,11.04,11.32,246700,11.09
2012-08-31,10.68,11.63,10.56,11.31,324600,11.08
2012-08-30,11.13,11.26,10.80,10.89,196000,10.67
2012-08-29,11.16,11.35,11.12,11.16,143300,10.93
2012-08-28,11.11,11.35,11.11,11.30,97000,11.07
2012-08-27,11.52,11.52,11.05,11.19,147900,10.96
2012-08-24,11.65,11.72,11.30,11.30,351000,11.07
2012-08-23,10.65,11.95,10.56,11.76,592000,11.52
2012-08-22,11.74,11.74,11.30,11.32,342700,11.09
2012-08-21,10.90,11.35,10.90,11.23,235100,11.00
2012-08-20,10.60,11.18,10.60,11.01,103800,10.78
2012-08-17,11.10,11.18,11.00,11.12,202800,10.89
2012-08-16,11.19,11.25,11.10,11.14,93400,10.91
2012-08-15,11.30,11.32,11.13,11.25,137700,11.02
2012-08-14,11.20,11.40,11.02,11.29,223400,11.06
2012-08-13,11.45,11.47,11.22,11.24,240300,11.01
2012-08-10,11.56,11.63,11.36,11.44,228700,11.21
2012-08-09,11.45,11.70,11.40,11.62,579500,11.38
2012-08-07,11.39,11.55,11.22,11.52,580100,11.28
2012-08-06,10.83,11.30,10.77,11.24,503900,11.01
2012-08-03,10.66,10.87,10.66,10.83,249400,10.61
2012-08-02,10.70,10.86,10.51,10.66,226200,10.44
2012-08-01,10.57,10.92,10.57,10.77,265700,10.55
2012-07-31,11.57,11.57,10.46,10.57,632900,10.35
2012-07-30,11.60,11.72,11.41,11.43,218500,11.20
2012-07-27,11.62,11.73,11.53,11.68,180100,11.44
2012-07-26,11.67,11.85,11.56,11.66,281000,11.42
2012-07-25,11.80,11.82,11.61,11.67,226000,11.43
2012-07-24,11.65,11.93,11.65,11.85,301000,11.61
2012-07-23,11.80,11.85,11.61,11.68,317800,11.44
2012-07-20,11.71,11.98,11.71,11.86,620100,11.62
2012-07-19,11.71,11.98,11.67,11.81,399900,11.57
2012-07-18,11.41,11.71,11.41,11.70,318300,11.46
2012-07-17,11.40,11.76,11.20,11.71,586300,11.47
2012-07-16,12.02,12.09,11.40,11.45,659600,11.22
2012-07-13,12.08,12.24,12.00,12.01,509600,11.76
2012-07-12,12.05,12.32,12.02,12.27,899100,12.02
2012-07-11,11.80,12.36,11.71,12.22,1328600,11.97
2012-07-10,11.88,12.50,11.62,12.03,1506100,11.78
2012-07-09,11.85,11.85,11.40,11.41,398400,11.18
2012-07-06,11.59,11.85,11.35,11.81,559000,11.57
2012-07-05,11.67,11.67,11.30,11.39,310500,11.16
2012-07-04,11.79,11.95,11.73,11.75,344300,11.51
2012-07-03,11.85,12.03,11.73,11.85,507200,11.61
2012-07-02,11.69,11.80,11.47,11.80,524100,11.56
2012-06-29,11.38,11.60,11.20,11.57,426800,11.33
2012-06-28,11.66,11.76,11.42,11.43,417900,11.20
2012-06-27,11.57,11.80,11.57,11.65,439600,11.41
2012-06-26,11.63,11.75,11.54,11.70,361900,11.46
2012-06-25,11.98,11.98,11.60,11.62,637400,11.38
2012-06-22,12.01,12.01,12.01,12.01,000,11.76
2012-06-21,12.30,12.39,11.92,12.01,900800,11.76
2012-06-20,12.55,12.56,12.35,12.40,552900,12.15
2012-06-19,12.50,12.58,12.40,12.46,548800,12.20
2012-06-18,12.50,12.68,12.49,12.55,751100,12.29
2012-06-15,12.63,12.64,12.28,12.48,989800,12.22
2012-06-14,12.70,12.94,12.58,12.58,966100,12.32
2012-06-13,12.50,12.78,12.50,12.73,874300,12.47
2012-06-12,12.68,12.86,12.42,12.68,1056800,12.42
2012-06-11,12.46,12.70,12.41,12.63,718500,12.37
2012-06-08,12.70,12.80,12.46,12.46,754500,12.20
2012-06-07,12.60,12.89,12.42,12.55,925900,12.29
2012-06-06,12.42,12.72,12.34,12.47,876400,12.21
2012-06-05,12.30,12.45,12.25,12.34,1028100,12.09
2012-06-04,12.85,12.85,12.19,12.30,2174200,12.05
2012-06-01,13.45,13.54,13.14,13.17,1376600,12.90
2012-05-31,13.40,13.63,13.30,13.41,1522600,13.14
2012-05-30,13.39,13.78,13.30,13.49,2410900,13.21
2012-05-29,13.38,13.47,13.18,13.47,2403300,13.19
2012-05-28,13.10,13.44,12.83,13.40,2830000,13.13
2012-05-25,14.01,14.01,13.00,13.16,3093900,12.89
2012-05-24,13.70,14.22,13.50,13.92,3448900,13.63
2012-05-23,13.90,13.99,13.30,13.79,3146500,13.51
2012-05-22,13.94,14.35,13.81,14.02,5102400,13.73
2012-05-21,15.47,16.30,14.01,14.35,7589800,14.06
2012-05-18,15.17,15.17,15.17,15.17,2327000,14.86
2012-05-17,12.81,13.79,12.81,13.79,1566700,13.51
2012-05-16,12.90,12.93,12.50,12.54,548200,12.28
2012-05-15,12.76,13.00,12.65,12.83,723700,12.57
2012-05-14,13.20,13.41,13.00,13.00,749200,12.73
2012-05-11,13.20,13.34,13.12,13.14,674400,12.87
2012-05-10,13.01,13.28,13.00,13.13,730400,12.86
2012-05-09,13.63,13.69,13.05,13.10,2027900,12.83
2012-05-08,13.52,14.08,13.52,13.81,2437300,13.53
2012-05-07,13.64,13.85,13.53,13.70,1556400,13.29
2012-05-04,13.75,14.15,13.00,13.85,4335400,13.43
2012-05-03,14.22,14.33,13.67,14.00,1605900,13.58
2012-05-02,14.43,14.58,14.02,14.38,1217200,13.95
2012-05-01,14.27,14.27,14.27,14.27,000,13.84
2012-04-30,14.27,14.27,14.27,14.27,000,13.84
2012-04-27,14.19,14.55,14.08,14.27,1133700,13.84
2012-04-26,14.68,14.68,14.19,14.20,1775400,13.77
2012-04-25,14.36,14.82,14.00,14.74,2667400,14.30
2012-04-24,14.37,15.42,14.25,14.97,3394800,14.52
2012-04-23,14.69,15.04,14.55,14.58,2943500,14.14
2012-04-20,14.55,15.18,14.36,15.00,5301600,14.55
2012-04-19,13.11,14.19,13.11,14.19,1649000,13.76
2012-04-18,13.00,13.00,12.66,12.90,296800,12.51
2012-04-17,13.25,13.27,12.45,12.65,353700,12.27
2012-04-16,12.97,13.18,12.90,13.07,326600,12.68
2012-04-13,12.90,12.90,12.90,12.90,000,12.51
2012-04-12,12.51,12.99,12.51,12.90,510100,12.51
2012-04-11,12.48,12.68,12.20,12.59,466600,12.21
2012-04-10,12.45,12.45,11.80,12.43,372200,12.06
2012-04-09,12.20,12.53,12.08,12.08,231400,11.72
2012-04-06,12.43,12.46,12.26,12.34,250300,11.97
2012-04-05,11.91,12.39,11.90,12.28,383600,11.91
2012-04-04,11.81,11.81,11.81,11.81,000,11.45
2012-04-03,11.81,11.81,11.81,11.81,000,11.45
2012-04-02,11.81,11.81,11.81,11.81,000,11.45
2012-03-30,12.15,12.17,11.70,11.81,449900,11.45
2012-03-29,12.65,12.79,11.92,12.00,596700,11.64
2012-03-28,13.80,13.83,12.56,12.70,586700,12.32
2012-03-27,13.85,14.08,13.68,13.76,312700,13.35
2012-03-26,13.89,13.96,13.53,13.78,505600,13.36
2012-03-23,14.46,14.46,13.50,13.80,988700,13.38
2012-03-22,13.99,14.61,13.99,14.46,1676000,14.02
2012-03-21,13.97,14.22,13.80,14.15,899600,13.72
2012-03-20,13.75,14.22,13.75,13.97,925800,13.55
2012-03-19,13.60,13.99,13.60,13.89,707900,13.47
2012-03-16,13.31,13.68,13.26,13.58,542300,13.17
2012-03-15,13.69,13.75,13.22,13.34,652700,12.94
2012-03-14,14.29,14.43,13.22,13.69,1005600,13.28
2012-03-13,13.91,14.18,13.76,14.14,739500,13.71
2012-03-12,13.90,14.09,13.71,13.95,714500,13.53
2012-03-09,13.48,13.96,13.48,13.90,1399800,13.48
2012-03-08,13.30,13.48,13.21,13.35,603300,12.95
2012-03-07,13.02,13.25,13.02,13.18,478400,12.78
2012-03-06,13.58,13.58,13.02,13.17,475400,12.77
2012-03-05,13.34,13.59,13.28,13.43,469200,13.03
2012-03-02,13.47,13.47,13.16,13.29,500100,12.89
2012-03-01,13.11,13.45,13.11,13.20,411100,12.80
2012-02-29,13.35,13.35,13.06,13.15,467800,12.75
2012-02-28,13.59,13.64,13.21,13.38,454700,12.98
2012-02-27,13.43,13.74,13.43,13.61,783200,13.20
2012-02-24,13.34,13.49,13.20,13.45,378600,13.04
2012-02-23,13.50,13.75,13.19,13.38,466900,12.98
2012-02-22,13.30,13.57,13.30,13.50,497900,13.09
2012-02-21,13.20,13.45,13.07,13.37,348100,12.97
2012-02-20,13.49,13.63,13.22,13.24,455400,12.84
2012-02-17,13.05,13.25,12.80,13.13,462000,12.73
2012-02-16,13.12,13.49,13.04,13.14,478800,12.74
2012-02-15,12.79,13.44,12.79,13.25,930000,12.85
2012-02-14,12.63,12.90,12.55,12.90,572900,12.51
2012-02-13,12.48,12.79,12.33,12.66,426300,12.28
2012-02-10,12.32,12.56,12.32,12.48,346800,12.10
2012-02-09,12.56,12.57,12.31,12.46,526500,12.08
2012-02-08,12.07,12.37,11.92,12.30,375900,11.93
2012-02-07,12.40,12.40,11.96,12.05,340300,11.69
2012-02-06,12.40,12.52,12.31,12.40,280700,12.03
2012-02-03,12.22,12.50,12.22,12.40,409800,12.03
2012-02-02,12.10,12.30,12.02,12.30,402700,11.93
2012-02-01,11.91,12.27,11.72,12.15,436500,11.78
2012-01-31,11.93,12.02,11.77,11.96,109600,11.60
2012-01-30,11.85,12.03,11.85,11.88,161000,11.52
2012-01-27,11.94,11.94,11.94,11.94,000,11.58
2012-01-26,11.94,11.94,11.94,11.94,000,11.58
2012-01-25,11.94,11.94,11.94,11.94,000,11.58
2012-01-24,11.94,11.94,11.94,11.94,000,11.58
2012-01-23,11.94,11.94,11.94,11.94,000,11.58
2012-01-20,11.72,11.97,11.71,11.94,165200,11.58
2012-01-19,11.69,11.90,11.42,11.80,293300,11.44
2012-01-18,12.00,12.05,11.59,11.61,329100,11.26
2012-01-17,11.25,11.89,11.10,11.78,336900,11.43
2012-01-16,11.21,11.51,10.94,11.25,273400,10.91
2012-01-13,11.96,12.17,11.37,11.46,369700,11.11
2012-01-12,12.03,12.24,11.71,11.96,420500,11.60
2012-01-11,11.96,12.38,11.96,12.21,568400,11.84
2012-01-10,11.36,11.96,11.30,11.96,488600,11.60
2012-01-09,11.08,11.35,10.60,11.31,466200,10.97
2012-01-06,11.03,11.19,10.67,10.92,253700,10.59
2012-01-05,11.50,11.75,10.92,11.02,304000,10.69
2012-01-04,12.37,12.38,11.62,11.62,132800,11.27
2012-01-03,11.90,12.05,11.85,11.99,162600,11.63
2012-01-02,11.90,12.05,11.85,11.99,162600,11.63
2011-12-30,11.90,12.05,11.85,11.99,162600,11.63
2011-12-29,11.59,11.88,11.59,11.71,166100,11.36
2011-12-28,11.85,11.99,11.52,11.75,271000,11.40
2011-12-27,12.38,12.65,11.91,12.00,366600,11.64
2011-12-26,12.89,12.94,12.50,12.66,151700,12.28
2011-12-23,12.70,12.98,12.70,12.89,156400,12.50
2011-12-22,12.85,13.07,12.07,12.71,263700,12.33
2011-12-21,13.55,13.80,13.05,13.07,231300,12.68
2011-12-20,13.62,13.65,13.30,13.33,151400,12.93
2011-12-19,13.42,13.47,13.04,13.41,280600,13.01
2011-12-16,13.02,13.45,13.00,13.41,430200,13.01
2011-12-15,13.95,13.95,12.96,13.06,350300,12.67
2011-12-14,14.00,14.15,13.88,13.90,199700,13.48
2011-12-13,14.91,14.95,13.87,13.99,490900,13.57
2011-12-12,15.57,15.57,14.81,14.91,262800,14.46
2011-12-09,15.34,15.35,15.20,15.34,243200,14.88
2011-12-08,15.72,15.72,15.20,15.26,265300,14.80
2011-12-07,15.28,15.75,15.25,15.44,217100,14.97
2011-12-06,15.20,15.35,15.01,15.20,174900,14.74
2011-12-05,15.32,15.59,15.15,15.20,204200,14.74
2011-12-02,15.80,15.90,15.30,15.32,272800,14.86
2011-12-01,15.84,16.15,15.73,15.91,301400,15.43
2011-11-30,16.15,16.16,15.32,15.41,337800,14.95
2011-11-29,15.92,16.15,15.92,16.13,202300,15.64
2011-11-28,15.97,15.97,15.67,15.85,172900,15.37
2011-11-25,16.20,16.28,15.80,15.87,252800,15.39
2011-11-24,16.20,16.38,16.03,16.07,264600,15.59
2011-11-23,16.58,16.62,16.30,16.34,263100,15.85
2011-11-22,16.20,16.65,16.16,16.58,363200,16.08
2011-11-21,16.10,16.43,16.05,16.29,239900,15.80
2011-11-18,16.46,16.46,16.05,16.10,367900,15.61
2011-11-17,16.60,16.71,16.39,16.45,387300,15.95
2011-11-16,17.16,17.20,16.50,16.52,635200,16.02
2011-11-15,17.18,17.57,17.00,17.16,999300,16.64
2011-11-14,16.80,17.61,16.80,17.25,1333700,16.73
2011-11-11,17.00,17.05,16.64,16.65,459000,16.15
2011-11-10,16.60,17.13,16.60,16.96,1138000,16.45
2011-11-09,16.51,16.82,16.51,16.81,599000,16.30
2011-11-08,16.56,16.76,16.56,16.59,498900,16.09
2011-11-07,16.51,16.97,16.50,16.56,987000,16.06
2011-11-04,16.50,17.32,16.50,17.00,2645700,16.49
2011-11-03,16.00,16.27,15.92,15.97,892700,15.49
2011-11-02,15.48,16.07,15.15,15.99,1093600,15.51
2011-11-01,15.74,15.96,15.47,15.75,732300,15.28
2011-10-31,15.97,15.97,15.61,15.67,515800,15.20
2011-10-28,15.37,15.86,15.37,15.81,766200,15.33
2011-10-27,15.55,15.68,15.35,15.35,321100,14.89
2011-10-26,15.39,15.75,15.39,15.54,498700,15.07
2011-10-25,15.25,15.54,15.14,15.38,616300,14.92
2011-10-24,14.91,15.29,14.81,15.23,286900,14.77
2011-10-21,15.00,15.14,14.85,14.91,324800,14.46
2011-10-20,15.45,15.45,14.87,14.90,607500,14.45
2011-10-19,15.42,15.76,15.40,15.58,447900,15.11
2011-10-18,15.60,15.70,15.40,15.42,396600,14.96
2011-10-17,15.90,15.90,15.62,15.79,282900,15.31
2011-10-14,15.80,15.83,15.59,15.71,401800,15.24
2011-10-13,15.60,15.93,15.56,15.80,515900,15.32
2011-10-12,15.03,15.59,15.01,15.59,522400,15.12
2011-10-11,15.50,15.70,15.05,15.13,401700,14.67
2011-10-10,15.06,15.30,15.06,15.15,295100,14.69
2011-09-30,14.92,15.21,14.88,15.03,308400,14.58
2011-09-29,15.11,15.23,14.83,14.88,470700,14.43
2011-09-28,15.62,15.75,15.28,15.30,489500,14.84
2011-09-27,15.55,15.68,15.36,15.51,508600,15.04
2011-09-26,15.82,16.10,15.30,15.39,706000,14.93
2011-09-23,15.75,16.48,15.72,15.97,675400,15.49
2011-09-22,17.10,17.16,16.26,16.31,1292600,15.82
2011-09-21,16.80,17.28,16.71,17.17,1687200,16.65
2011-09-20,16.75,17.30,16.67,16.98,2503200,16.47
2011-09-19,15.65,17.18,15.65,17.17,1755200,16.65
2011-09-16,15.50,16.05,15.45,15.84,573300,15.36
2011-09-15,15.50,15.66,15.40,15.41,292400,14.95
2011-09-14,15.30,15.46,15.10,15.45,227600,14.98
2011-09-13,15.50,15.50,15.18,15.28,218900,14.82
2011-09-09,15.38,15.80,15.38,15.53,209100,15.06
2011-09-08,15.90,15.97,15.56,15.57,289100,15.10
2011-09-07,15.99,16.17,15.50,15.84,329700,15.36
2011-09-06,15.18,15.56,15.18,15.43,279800,14.97
2011-09-05,15.64,15.64,15.18,15.29,482100,14.83
2011-09-02,16.55,16.55,15.75,15.80,848600,15.32
2011-09-01,16.78,16.98,16.50,16.54,455000,16.04
2011-08-31,16.83,17.17,16.70,16.80,400200,16.29
2011-08-30,16.90,17.38,16.82,16.88,794500,16.37
2011-08-29,16.80,16.90,16.71,16.88,518700,16.37
2011-08-26,16.76,16.90,16.65,16.80,438600,16.29
2011-08-25,16.70,16.83,16.45,16.76,373600,16.26
2011-08-24,16.90,16.90,16.41,16.55,422100,16.05
2011-08-23,16.39,16.56,16.05,16.56,363600,16.06
2011-08-22,16.45,16.65,16.15,16.22,294300,15.73
2011-08-19,16.40,16.65,16.28,16.43,575700,15.94
2011-08-18,16.91,17.16,16.65,16.65,455400,16.15
2011-08-17,16.93,17.20,16.80,16.90,503600,16.39
2011-08-16,17.48,17.48,16.96,17.12,564600,16.60
2011-08-15,16.94,17.30,16.94,17.22,823300,16.70
2011-08-12,16.98,17.77,16.88,16.95,1141900,16.44
2011-08-11,16.01,16.79,16.01,16.75,577700,16.25
2011-08-10,16.81,16.90,16.52,16.55,699800,16.05
2011-08-09,16.01,16.70,15.00,16.32,892900,15.83
2011-08-08,17.16,17.48,15.96,16.55,1167200,16.05
2011-08-05,17.18,17.80,17.02,17.52,970100,16.99
2011-08-04,17.52,17.98,17.46,17.86,781300,17.32
2011-08-03,17.29,17.60,17.22,17.48,702300,16.95
2011-08-02,17.00,17.45,16.60,17.41,623800,16.89
2011-08-01,16.92,17.25,16.92,17.09,567000,16.58
2011-07-29,17.38,17.42,16.94,16.96,820500,16.45
2011-07-28,17.34,17.49,17.10,17.38,1034100,16.86
2011-07-27,17.30,17.69,17.25,17.55,716400,17.02
2011-07-26,17.70,17.80,17.03,17.41,938900,16.89
2011-07-25,18.00,18.48,17.47,17.69,1555900,17.16
2011-07-22,17.72,18.79,17.72,18.18,1663900,17.63
2011-07-21,18.36,18.49,17.80,17.80,1679900,17.26
2011-07-20,18.52,18.86,18.37,18.48,4569000,17.92
2011-07-19,17.30,18.85,17.30,18.78,4018900,18.21
2011-07-18,17.77,17.80,17.52,17.60,1049000,17.07
2011-07-15,17.58,17.75,17.41,17.62,1443500,17.09
2011-07-14,18.01,18.10,17.40,17.61,1586200,17.08
2011-07-13,17.67,17.99,17.67,17.89,1484400,17.35
2011-07-12,17.77,18.27,17.63,17.66,1709600,17.13
2011-07-11,17.48,18.14,17.30,17.97,1890300,17.43
2011-07-08,17.49,18.69,17.49,17.85,3114000,17.31
2011-07-07,17.30,17.53,17.11,17.26,1473600,16.74
2011-07-06,17.15,17.49,17.04,17.30,1204400,16.78
2011-07-05,17.66,17.66,17.15,17.32,1654600,16.80
2011-07-04,16.87,17.57,16.80,17.45,2581000,16.92
2011-07-01,16.30,16.99,16.22,16.67,2045100,16.17
2011-06-30,15.91,16.25,15.82,16.22,907600,15.73
2011-06-29,16.22,16.30,15.90,15.93,931500,15.45
2011-06-28,15.71,16.47,15.71,16.23,1525900,15.74
2011-06-27,15.65,15.98,15.65,15.85,1148400,15.37
2011-06-24,15.20,15.80,15.12,15.63,1077800,15.16
2011-06-23,14.95,15.26,14.76,15.20,582800,14.74
2011-06-22,15.19,15.36,14.88,14.90,462500,14.45
2011-06-21,15.11,15.15,14.80,15.13,374100,14.67
2011-06-20,14.70,14.94,14.51,14.86,403900,14.41
2011-06-17,14.88,15.13,14.71,14.73,457300,14.29
2011-06-16,14.90,15.20,14.62,14.82,591700,14.37
2011-06-15,15.30,15.38,15.00,15.00,439700,14.55
2011-06-14,14.90,15.35,14.90,15.20,549500,14.74
2011-06-13,15.05,15.06,14.80,14.93,390400,14.48
2011-06-10,15.06,15.19,14.82,15.07,377900,14.62
2011-06-09,15.61,15.61,15.05,15.06,747500,14.61
2011-06-08,15.51,15.68,15.30,15.61,842300,15.14
2011-06-07,15.45,15.60,15.35,15.49,597300,15.02
2011-06-03,15.25,15.49,15.20,15.40,520300,14.94
2011-06-02,15.21,15.49,15.00,15.20,865600,14.74
2011-06-01,15.61,15.81,15.41,15.70,760200,15.23
2011-05-31,15.28,15.69,15.28,15.61,477300,15.14
2011-05-30,14.80,15.49,14.70,15.40,970600,14.94
2011-05-27,15.56,15.57,14.76,14.90,1022600,14.45
2011-05-26,15.87,15.97,15.41,15.45,729300,14.98
2011-05-25,16.25,16.27,15.65,15.77,835400,15.29
2011-05-24,16.24,16.37,15.80,16.22,905400,15.73
2011-05-23,17.00,17.16,16.08,16.21,1396400,15.72
2011-05-20,16.95,17.60,16.80,17.26,1789500,16.74
2011-05-19,16.82,17.30,16.81,16.87,981700,16.36
2011-05-18,16.85,17.00,16.70,16.84,739800,16.33
2011-05-17,17.09,17.18,16.60,16.83,1077000,16.32
2011-05-16,17.06,17.25,16.76,17.08,1080000,16.57
2011-05-13,16.78,17.10,16.50,16.76,1227000,16.26
2011-05-12,17.18,17.30,16.76,16.76,1530400,16.26
2011-05-11,16.38,17.64,16.38,17.28,2259300,16.76
2011-05-10,16.20,16.57,16.00,16.48,1070300,15.98
2011-05-09,16.09,16.30,15.99,16.17,917800,15.68
2011-05-05,15.89,16.08,15.65,15.92,885100,15.44
2011-05-04,16.65,16.65,15.84,15.92,1439600,15.44
2011-05-03,16.36,16.85,16.16,16.60,972100,16.10
2011-04-29,16.01,16.58,15.73,16.35,995100,15.86
2011-04-28,17.00,17.18,15.90,15.96,1580200,15.48
2011-04-27,16.72,17.52,16.62,16.80,1824300,16.29
2011-04-26,17.75,18.48,16.74,16.75,2987800,16.25
2011-04-25,27.52,28.71,27.00,28.05,4782200,18.01
2011-04-22,26.99,27.55,26.70,27.44,2843500,17.61
2011-04-21,27.02,27.39,26.50,26.80,1924700,17.20
2011-04-20,26.76,26.76,26.19,26.50,1887500,17.01
2011-04-19,25.05,26.99,25.00,26.69,3531000,17.13
2011-04-18,25.20,25.20,24.83,25.00,1005400,16.05
2011-04-15,24.82,25.30,24.65,25.22,1140900,16.19
2011-04-14,25.32,25.32,24.68,24.82,1217300,15.93
2011-04-13,25.18,25.45,24.51,25.34,1659900,16.27
2011-04-12,26.50,26.50,25.26,25.35,1775300,16.27
2011-04-11,26.17,26.71,25.80,26.10,2224800,16.75
2011-04-07,25.20,25.99,25.20,25.80,1268500,16.56
2011-04-06,25.65,26.10,25.22,25.38,1580900,16.29
2011-04-01,25.21,25.90,25.19,25.75,1425900,16.53
2011-03-31,26.21,26.42,25.00,25.28,2775800,16.23
2011-03-30,27.51,27.71,26.38,26.43,2554100,16.97
2011-03-29,27.16,28.27,27.16,27.67,3944100,17.76
2011-03-28,27.53,27.69,27.10,27.45,3613200,17.62
2011-03-25,28.02,28.49,27.31,27.53,5160400,17.67
2011-03-24,28.05,28.77,27.80,28.23,6184100,18.12
2011-03-23,27.41,28.30,27.08,28.26,6309900,18.14
2011-03-22,27.68,28.00,26.78,27.78,7116700,17.83
2011-03-21,25.22,27.74,25.22,27.74,10293000,17.81
2011-03-18,25.30,25.48,24.90,25.22,2406900,16.19
2011-03-17,25.39,25.39,24.30,24.75,1756700,15.89
2011-03-16,25.31,25.62,25.09,25.44,1467600,16.33
2011-03-15,26.05,26.05,24.70,25.24,2018500,16.20
2011-03-14,25.61,26.05,25.58,26.05,1517700,16.72
2011-03-11,25.79,26.20,25.70,25.92,1981900,16.64
2011-03-10,26.67,26.67,25.73,25.79,2427000,16.55
2011-03-09,27.00,27.08,26.48,26.69,2782000,17.13
2011-03-08,26.39,27.10,26.26,27.10,3849500,17.40
2011-03-07,26.83,26.90,26.20,26.31,3396800,16.89
2011-03-04,26.18,26.96,26.10,26.56,3392400,17.05
2011-03-03,25.90,26.59,25.61,26.31,4222400,16.89
2011-03-02,25.59,25.97,25.21,25.84,2058100,16.59
2011-03-01,25.43,26.00,25.20,25.80,2595100,16.56
2011-02-28,25.20,26.28,24.80,25.82,3300700,16.57
2011-02-25,25.20,26.85,25.17,25.52,5181700,16.38
2011-02-24,24.51,24.69,24.20,24.63,1217100,15.81
2011-02-23,23.87,24.52,23.87,24.41,1598100,15.67
2011-02-22,25.26,25.55,24.17,24.22,2621700,15.55
2011-02-21,24.93,25.55,24.58,25.53,2218800,16.39
2011-02-18,25.70,25.90,25.11,25.29,3141600,16.23
2011-02-17,25.37,26.90,25.13,25.99,4878400,16.68
2011-02-16,24.30,25.40,24.18,25.21,3362300,16.18
2011-02-15,24.25,25.15,24.01,24.50,3389600,15.73
2011-02-14,24.00,24.50,23.89,24.27,2890600,15.58
2011-02-11,23.61,24.30,23.35,23.89,2615900,15.34
2011-02-10,22.95,23.60,22.65,23.60,2422100,15.15
2011-02-09,23.48,23.54,22.91,22.94,1772700,14.73
2011-02-01,22.98,23.66,22.77,23.56,2206200,15.12
2011-01-31,23.20,23.20,22.30,23.12,2876500,14.84
2011-01-28,22.84,23.32,22.66,23.00,1934300,14.76
2011-01-27,22.08,23.19,22.00,22.84,2150000,14.66
2011-01-26,21.67,22.50,21.59,22.36,2656000,14.35
2011-01-25,22.70,22.70,21.30,21.67,2524900,13.91
2011-01-24,23.34,23.49,22.52,22.55,2407600,14.48
2011-01-21,23.15,23.95,22.88,23.47,3657500,15.07
2011-01-20,26.09,26.27,23.26,23.76,5574500,15.25
2011-01-19,25.30,25.98,25.01,25.84,2835800,16.59
2011-01-18,25.10,25.64,24.50,25.31,2178800,16.25
2011-01-17,25.80,26.33,25.00,25.36,3272100,16.28
2011-01-14,26.19,26.45,25.55,26.04,3881600,16.72
2011-01-13,27.27,27.37,26.54,26.54,4140200,17.04
2011-01-12,27.20,27.70,26.56,27.25,5456800,17.49
2011-01-11,30.30,30.58,28.16,28.16,4602900,18.08
2011-01-07,30.85,31.50,30.51,31.29,6108400,20.09
2011-01-06,31.25,31.73,30.56,31.10,7313900,19.96
2011-01-05,32.20,32.47,30.86,31.18,8293700,20.01
2011-01-04,31.95,32.99,31.65,32.55,9087200,20.89
2010-12-31,32.58,33.88,31.40,32.55,13572400,20.89
2010-12-30,29.20,32.46,29.06,32.46,13490000,20.84
2010-12-29,30.59,30.59,28.89,29.51,10321700,18.94
2010-12-28,29.80,30.59,29.34,30.59,18104800,19.64
2010-12-27,27.81,27.81,27.81,27.81,1459900,17.85
2010-12-24,26.51,26.58,25.00,25.28,1609800,16.23
2010-12-23,26.38,26.95,26.25,26.84,1832600,17.23
2010-12-22,27.15,27.15,26.25,26.40,2734800,16.95
2010-12-21,27.90,28.18,26.90,27.30,4117800,17.52
2010-12-20,28.77,28.96,27.50,27.96,2173700,17.95
2010-12-17,28.25,28.65,28.00,28.57,1634200,18.34
2010-12-16,28.08,28.80,27.91,28.24,2084500,18.13
2010-12-15,27.98,28.40,27.67,28.03,2227100,17.99
2010-12-14,27.98,28.17,27.50,28.03,1674500,17.99
2010-12-13,27.50,28.28,27.31,28.05,1659300,18.01
2010-12-10,26.40,27.80,26.40,27.35,1432500,17.56
2010-12-09,27.15,28.00,26.40,26.40,1657600,16.95
2010-12-08,28.21,28.38,27.81,28.09,1425900,18.03
2010-12-07,27.51,29.00,26.11,28.22,1744900,18.11
2010-12-06,30.59,30.92,27.77,28.00,3017500,17.97
2010-12-03,30.90,31.70,30.10,30.58,2137400,19.63
2010-12-02,30.90,31.85,30.36,31.18,4770000,20.01
2010-12-01,30.41,30.55,29.70,30.31,1643100,19.46
2010-11-30,31.58,31.78,29.51,30.30,3177600,19.45
2010-11-29,30.32,31.18,30.31,31.16,4268400,20.00
2010-11-26,30.50,30.87,29.51,30.28,2330200,19.44
2010-11-25,32.70,32.70,30.00,30.75,4283700,19.74
2010-11-24,30.58,31.86,30.39,31.80,4024700,20.41
2010-11-23,30.99,31.87,29.80,30.53,3869900,19.60
2010-11-22,30.09,31.88,29.80,31.36,4162600,20.13
2010-11-19,28.00,30.28,28.00,30.18,4418300,19.37
2010-11-18,29.50,29.68,27.99,28.58,3501600,18.35
2010-11-17,30.40,30.40,28.35,29.08,3569700,18.67
2010-11-16,32.40,32.40,29.18,30.38,4422900,19.50
2010-11-15,30.80,32.10,30.00,31.38,5297700,20.14
2010-11-12,30.00,31.50,28.88,29.91,7176300,19.20
2010-11-11,28.51,29.88,28.30,29.40,4933000,18.87
2010-11-10,28.76,29.50,27.85,28.51,4817000,18.30
2010-11-09,27.50,29.37,26.82,28.86,9064800,18.53
2010-11-08,27.17,27.35,25.40,27.28,10792500,17.51
2010-11-02,22.61,24.86,22.61,24.86,7580700,15.96
2010-11-01,21.96,22.88,21.96,22.60,2498800,14.51
2010-10-29,22.13,22.22,21.76,21.87,1710000,14.04
2010-10-28,22.72,22.78,22.13,22.14,2100900,14.21
2010-10-27,22.22,23.40,22.22,22.90,5227800,14.70
2010-10-26,21.82,22.29,21.65,22.22,2839300,14.26
2010-10-25,21.28,22.15,21.23,21.78,1674300,13.98
2010-10-22,20.97,21.69,20.60,21.34,1748800,13.70
2010-10-21,20.95,21.50,20.95,21.15,939500,13.58
2010-10-20,20.70,21.34,20.40,20.91,1064300,13.42
2010-10-19,20.10,20.96,20.10,20.95,965700,13.45
2010-10-18,20.80,20.80,19.60,20.05,1533700,12.87
2010-10-15,21.35,21.45,20.51,20.64,1826700,13.25
2010-10-14,22.08,22.13,21.28,21.31,3071300,13.68
2010-10-13,21.03,21.57,20.95,21.53,2027100,13.82
2010-10-12,21.26,21.26,20.76,21.07,1540500,13.53
2010-10-11,21.48,21.68,21.03,21.25,1600900,13.64
2010-10-08,21.25,21.60,21.00,21.35,1500900,13.70
2010-09-30,20.85,21.20,20.62,21.12,1280900,13.56
2010-09-29,20.67,20.93,20.55,20.83,800400,13.37
2010-09-28,21.16,21.24,20.50,20.67,886600,13.27
2010-09-27,20.58,21.30,20.58,21.16,821800,13.58
2010-09-21,20.53,20.88,20.21,20.57,1118200,13.20
2010-09-20,22.08,22.30,20.70,20.78,1792300,13.34
2010-09-17,22.65,22.65,21.82,22.08,1735600,14.17
2010-09-16,21.91,22.75,21.51,22.58,3099500,14.49
2010-09-15,22.09,22.22,21.51,21.70,1179200,13.93
2010-09-14,22.42,22.50,21.89,22.20,1875100,14.25
2010-09-13,21.96,22.58,21.96,22.25,1974400,14.28
2010-09-10,21.88,22.35,21.41,22.05,2219400,14.15
2010-09-09,22.76,23.38,21.80,21.88,3296400,14.05
2010-09-08,22.87,22.97,22.38,22.79,3075500,14.63
2010-09-07,22.25,23.19,22.05,23.11,5667900,14.83
2010-09-06,21.90,22.65,21.43,22.25,4936100,14.28
2010-09-03,21.15,22.20,21.10,21.88,4865800,14.05
2010-09-02,21.08,21.50,20.75,21.14,2868100,13.57
2010-09-01,21.24,21.66,20.71,21.17,3998400,13.59
2010-08-31,20.98,21.43,20.65,21.27,3949000,13.65
2010-08-30,20.20,21.05,20.14,20.79,2343500,13.35
2010-08-27,19.96,20.30,19.80,20.16,1282100,12.94
2010-08-26,20.31,20.39,19.58,19.95,1695400,12.81
2010-08-25,20.77,21.00,20.27,20.29,1418900,13.02
2010-08-24,20.70,21.10,20.50,20.77,1878800,13.33
2010-08-23,20.26,21.05,20.08,20.89,2159600,13.41
2010-08-20,20.60,20.93,20.23,20.25,1899200,13.00
2010-08-19,20.70,20.90,20.49,20.68,1819900,13.27
2010-08-18,20.98,20.98,20.60,20.72,2072900,13.30
2010-08-17,21.30,21.47,20.80,20.94,4201100,13.44
2010-08-16,21.10,21.50,20.90,21.39,4201800,13.73
2010-08-13,20.90,21.45,20.65,21.22,3673000,13.62
2010-08-12,20.52,21.50,20.42,21.14,5937200,13.57
2010-08-11,19.77,21.30,19.58,20.89,4924800,13.41
2010-08-10,20.38,20.55,19.85,19.86,2341000,12.75
2010-08-09,19.98,20.57,19.80,20.47,3024300,13.14
2010-08-06,19.65,20.04,19.30,19.97,2225500,12.82
2010-08-05,19.72,20.15,19.58,19.84,2260700,12.74
2010-08-04,19.91,20.18,19.12,19.70,2307600,12.65
2010-08-03,20.32,20.32,19.93,19.95,1800000,12.81
2010-08-02,20.09,20.58,20.02,20.22,2012500,12.98
2010-07-30,20.49,20.49,19.80,20.10,1958600,12.90
2010-07-29,20.09,20.89,19.82,20.58,3297900,13.21
2010-07-28,19.70,20.12,19.61,20.07,1720700,12.88
2010-07-27,20.15,20.15,19.63,19.70,1903300,12.65
2010-07-26,20.20,20.78,19.93,20.19,2442000,12.96
2010-07-23,19.98,20.50,19.45,20.40,3592800,13.10
2010-07-22,19.78,20.10,19.52,19.93,1528800,12.79
2010-07-21,19.92,20.30,19.66,19.78,2823200,12.70
2010-07-20,19.55,20.16,19.41,19.99,3297500,12.83
2010-07-19,18.69,19.63,18.46,19.55,2628300,12.55
2010-07-16,18.71,18.75,18.18,18.68,1446500,11.99
2010-07-15,19.16,19.42,18.65,18.69,1521800,12.00
2010-07-14,19.01,19.59,19.01,19.23,1923200,12.34
2010-07-13,19.55,19.68,19.06,19.15,2475200,12.29
2010-07-12,19.70,20.00,19.33,19.81,4364200,12.72
2010-07-09,19.60,20.68,18.96,20.10,5537400,12.90
2010-07-08,19.60,19.90,18.67,18.99,4086100,12.19
2010-07-07,18.48,18.99,18.48,18.83,2975700,12.09
2010-07-06,17.50,18.50,17.45,18.19,1967400,11.68
2010-07-05,17.58,17.66,17.08,17.41,622800,11.18
2010-07-02,17.40,17.59,16.91,17.59,1611200,11.29
2010-07-01,17.45,17.45,16.89,17.15,699100,11.01
2010-06-30,17.00,17.50,16.75,17.23,747300,11.06
2010-06-29,18.26,18.28,17.05,17.05,1033200,10.94
2010-06-28,18.01,18.42,18.00,18.04,499200,11.58
2010-06-25,18.58,18.74,18.00,18.11,675100,11.63
2010-06-24,18.55,18.85,18.11,18.76,1104500,12.04
2010-06-23,18.51,18.69,18.08,18.36,706700,11.79
2010-06-22,19.00,19.00,18.48,18.65,1337700,11.97
2010-06-21,17.47,19.00,16.86,18.98,1427300,12.18
2010-06-18,18.37,18.50,17.25,17.35,1119200,11.14
2010-06-17,18.67,18.98,18.40,18.43,667500,11.83
2010-06-11,19.04,19.16,18.53,18.53,1098900,11.89
2010-06-10,18.95,19.21,18.90,18.92,1325000,12.14
2010-06-09,18.92,19.37,18.70,18.94,2622600,12.16
2010-06-08,18.60,19.79,18.08,19.17,5510800,12.31
2010-06-07,17.02,18.78,16.68,18.78,2598100,12.06
2010-06-04,17.23,17.53,17.04,17.38,744600,11.16
2010-06-03,17.29,17.98,17.23,17.40,1403200,11.08
2010-06-02,16.88,17.30,16.55,17.29,1183200,11.01
2010-06-01,17.61,17.97,16.68,17.00,1390500,10.83
2010-05-31,18.74,18.86,17.90,17.91,1614200,11.41
2010-05-28,19.00,19.09,18.55,18.85,2428800,12.01
2010-05-27,17.90,19.52,17.90,18.80,2821200,11.97
2010-05-26,18.14,18.50,17.75,18.18,1722500,11.58
2010-05-25,17.87,18.39,17.36,18.08,2908900,11.52
2010-05-24,16.30,17.56,16.30,17.49,1552500,11.14
2010-05-21,16.08,16.56,15.50,16.55,936000,10.54
2010-05-20,16.73,16.99,16.10,16.22,974600,10.33
2010-05-19,16.30,16.88,16.03,16.79,1184500,10.69
2010-05-18,16.00,16.76,15.83,16.39,933600,10.44
2010-05-17,17.51,17.80,16.34,16.40,1001900,10.45
2010-05-14,17.46,18.25,17.11,17.90,1603200,11.40
2010-05-12,18.16,18.16,16.55,17.00,983800,10.83
2010-05-11,19.29,19.99,17.61,17.92,1380600,11.41
2010-05-10,19.62,20.10,18.99,19.29,1017800,12.29
2010-05-07,19.46,20.20,19.00,19.50,1049500,12.42
2010-05-06,20.40,20.55,19.54,19.70,1069400,12.55
2010-05-05,19.47,20.58,19.43,20.43,1314500,13.01
2010-05-04,18.98,20.14,18.40,19.88,1241600,12.66
2010-04-30,20.70,20.95,19.36,19.44,2171100,12.38
2010-04-29,22.28,22.49,21.00,21.18,2926600,13.49
2010-04-28,22.22,22.70,22.22,22.28,3244400,14.19
2010-04-27,21.75,22.48,21.30,22.44,3712900,14.29
2010-04-26,21.50,21.98,21.21,21.79,1631500,13.88
2010-04-23,21.80,22.19,21.30,21.56,1813000,13.73
2010-04-22,21.20,22.15,21.18,21.98,2566200,14.00
2010-04-21,20.82,21.66,20.80,21.66,2264400,13.80
2010-04-20,21.44,21.83,20.60,21.00,1520900,13.38
2010-04-19,21.75,22.50,21.20,21.32,3063600,13.58
2010-04-16,22.43,22.50,21.60,22.15,1539100,14.11
2010-04-15,21.72,22.83,21.52,22.43,5194200,14.29
2010-04-14,21.30,21.77,21.00,21.74,1446900,13.85
2010-04-13,22.09,22.30,20.03,21.50,2119800,13.69
2010-04-12,21.57,22.08,21.57,21.90,1668000,13.95
2010-04-09,21.12,21.70,21.12,21.57,1329200,13.74
2010-04-08,22.25,22.25,21.38,21.38,2326700,13.62
2010-04-07,21.88,22.25,21.65,22.25,3259000,14.17
2010-04-06,21.60,22.10,21.52,21.88,3022300,13.94
2010-04-02,21.43,21.98,21.08,21.89,4404600,13.94
2010-04-01,20.80,21.88,20.78,21.43,2562800,13.65
2010-03-31,20.75,21.20,20.62,20.77,1630300,13.23
2010-03-30,20.12,22.00,19.98,20.91,3864800,13.32
2010-03-29,20.65,20.65,19.91,20.17,2416200,12.85
2010-03-26,20.19,20.70,20.19,20.48,1206000,13.04
2010-03-25,20.48,20.70,20.18,20.34,1648800,12.96
2010-03-24,20.60,20.65,20.17,20.50,1288100,13.06
2010-03-23,20.92,20.92,20.37,20.60,1800100,13.12
2010-03-22,20.14,20.99,20.14,20.77,3097000,13.23
2010-03-19,20.11,20.36,19.91,20.15,1297100,12.83
2010-03-18,19.75,20.19,19.70,20.01,1624300,12.75
2010-03-17,19.62,19.90,19.37,19.77,1169200,12.59
2010-03-16,19.00,19.60,19.00,19.49,762700,12.41
2010-03-15,18.86,19.40,18.86,19.29,1146800,12.29
2010-03-12,19.59,19.59,18.81,18.98,891300,12.09
2010-03-11,19.26,19.69,18.50,19.59,1550100,12.48
2010-03-10,19.91,20.08,19.20,19.25,1197700,12.26
2010-03-09,20.40,20.40,19.83,19.96,1137800,12.71
2010-03-08,20.25,20.58,19.91,20.43,1447800,13.01
2010-03-05,19.68,20.49,19.41,20.25,1895300,12.90
2010-03-04,20.40,20.51,19.40,19.69,2148500,12.54
2010-03-03,20.18,20.78,19.82,20.42,3258900,13.01
2010-03-02,19.49,20.40,19.25,20.15,2994000,12.83
2010-03-01,18.95,19.89,18.95,19.49,1606300,12.41
2010-02-26,19.15,19.16,18.88,18.95,1182400,12.07
2010-02-25,18.91,19.15,18.82,19.15,1863600,12.20
2010-02-24,18.16,18.97,18.10,18.91,1768200,12.04
2010-02-23,18.50,18.50,18.00,18.19,785500,11.59
2010-02-22,18.50,18.69,18.30,18.50,756300,11.78
2010-02-18,18.26,18.59,18.19,18.53,1040900,11.80
2010-02-17,18.26,18.59,18.19,18.53,1040900,11.80
2010-02-16,18.26,18.59,18.19,18.53,1040900,11.80
2010-02-15,18.26,18.59,18.19,18.53,1040900,11.80
2010-02-12,18.26,18.59,18.19,18.53,1040900,11.80
2010-02-11,18.30,18.38,18.20,18.22,821200,11.60
2010-02-10,17.82,18.32,17.82,18.26,760900,11.63
2010-02-09,17.78,18.19,17.78,18.00,760200,11.46
2010-02-08,17.60,17.99,17.50,17.98,1113000,11.45
2010-02-05,18.15,18.20,17.51,17.70,1787100,11.27
2010-02-04,18.50,19.06,18.10,18.58,1932600,11.83
2010-02-03,18.51,18.76,17.21,18.71,2355600,11.92
2010-02-02,19.70,20.28,18.30,18.58,2026900,11.83
2010-02-01,20.65,20.69,19.70,19.71,1289900,12.55
2010-01-29,20.27,20.76,20.06,20.63,1354100,13.14
2010-01-28,20.04,20.50,20.01,20.27,819900,12.91
2010-01-27,20.00,20.58,19.60,20.01,1066900,12.75
2010-01-26,21.37,21.58,20.00,20.06,1473500,12.78
2010-01-25,21.35,21.78,21.21,21.37,984500,13.61
2010-01-22,22.67,22.96,21.04,21.46,2330800,13.67
2010-01-21,23.47,23.83,22.71,23.03,1840400,14.67
2010-01-20,24.97,25.19,23.06,23.45,3081400,14.94
2010-01-19,24.77,25.28,24.38,24.90,3250500,15.86
2010-01-18,25.40,25.45,24.53,24.84,3801000,15.82
2010-01-15,24.10,25.80,23.93,25.30,6458500,16.11
2010-01-14,24.33,24.45,23.55,24.09,4263800,15.34
2010-01-13,24.60,24.98,24.13,24.15,3841100,15.38
2010-01-12,23.85,24.99,23.74,24.97,6964500,15.90
2010-01-11,23.20,24.30,23.09,23.99,5302500,15.28
2010-01-08,23.03,23.26,22.40,23.02,1876100,14.66
2010-01-07,23.47,23.65,22.91,23.38,2592200,14.89
2010-01-06,22.88,23.99,22.81,23.59,3659400,15.03
2010-01-05,23.08,23.32,22.73,22.88,1965500,14.57
2010-01-04,22.87,23.26,22.82,23.11,2096700,14.72
2009-12-31,22.43,22.92,22.43,22.70,2025300,14.46
2009-12-30,23.30,23.31,22.37,22.43,3284000,14.29
2009-12-29,23.30,23.65,22.88,23.30,3531800,14.84
2009-12-28,23.62,24.06,22.85,23.78,4322800,15.15
2009-12-25,24.48,24.96,23.95,23.97,4597500,15.27
2009-12-24,23.55,25.00,23.51,24.96,7577800,15.90
2009-12-23,24.19,24.40,23.45,24.04,4586700,15.31
2009-12-22,24.00,24.26,23.39,24.04,5562700,15.31
2009-12-21,23.68,23.91,22.00,23.58,3345700,15.02
2009-12-18,23.60,24.23,23.31,24.10,4969100,15.35
2009-12-17,23.80,23.98,23.33,23.37,2051300,14.89
2009-12-16,23.61,24.00,23.41,23.55,2300500,15.00
2009-12-15,24.10,24.10,23.50,23.62,3065900,15.04
2009-12-14,24.20,24.50,23.60,24.10,6136000,15.35
2009-12-11,22.98,24.00,22.40,23.81,4432300,15.17
2009-12-10,22.55,23.14,22.50,22.79,1936300,14.52
2009-12-09,22.00,23.14,21.91,22.53,2569400,14.35
2009-12-08,22.69,22.97,22.28,22.49,2920400,14.32
2009-12-07,22.95,23.35,22.10,23.05,2999500,14.68
2009-12-04,23.80,24.00,22.51,22.84,6075000,14.55
2009-12-03,24.20,24.80,23.80,24.33,8674300,15.50
2009-12-02,23.99,24.75,23.25,24.00,12437500,15.29
2009-12-01,21.38,23.58,21.09,23.58,9588000,15.02
2009-11-30,20.12,21.50,20.12,21.44,2481500,13.66
2009-11-27,21.74,21.74,19.89,19.99,3631100,12.73
2009-11-26,21.25,22.66,21.20,21.98,8087500,14.00
2009-11-25,20.35,21.45,20.00,21.33,2730100,13.59
2009-11-24,21.81,22.17,20.24,20.32,3552000,12.94
2009-11-23,21.05,22.15,21.00,21.80,4534100,13.89
2009-11-20,20.80,21.35,20.65,21.16,2481600,13.48
2009-11-19,20.55,20.97,20.55,20.87,2202100,13.29
2009-11-18,20.95,21.07,20.52,20.79,2570600,13.24
2009-11-17,22.50,22.50,21.00,21.08,4283900,13.43
2009-11-16,21.00,21.50,20.82,21.35,4880300,13.60
2009-11-13,20.70,21.34,20.38,21.23,7675100,13.52
2009-11-12,19.68,20.93,19.61,20.80,5327500,13.25
2009-11-11,19.75,19.79,19.28,19.58,1739500,12.47
2009-11-10,20.38,20.49,19.76,19.81,2417200,12.62
2009-11-06,20.20,20.49,20.07,20.18,2739200,12.85
2009-11-05,19.75,20.40,19.67,20.18,3349500,12.85
2009-11-04,19.50,20.30,19.50,19.75,2951500,12.58
2009-11-03,19.78,21.00,19.42,20.25,7694000,12.90
2009-11-02,17.85,19.90,17.51,19.78,3314800,12.60
2009-10-30,18.00,18.49,18.00,18.17,1582600,11.57
2009-10-29,18.29,18.29,17.80,17.82,1217100,11.35
2009-10-28,18.40,18.58,17.80,18.42,1597600,11.73
2009-10-27,19.60,19.60,18.50,18.50,2409600,11.78
2009-10-26,19.50,20.22,19.50,19.70,2435600,12.55
2009-10-23,19.30,19.79,19.29,19.52,2482500,12.43
2009-10-22,19.15,19.55,18.89,19.30,1808500,12.29
2009-10-21,19.80,19.80,19.04,19.38,2788900,12.34
2009-10-20,18.65,19.87,18.59,19.80,3645500,12.61
2009-10-19,17.90,18.78,17.75,18.65,1775100,11.88
2009-10-16,18.32,18.40,17.50,17.95,1806000,11.43
2009-10-15,18.81,18.90,18.15,18.22,1871000,11.60
2009-10-14,18.80,19.14,18.50,18.70,2407000,11.91
2009-10-13,17.80,18.96,17.71,18.90,2274100,12.04
2009-10-12,17.60,18.15,17.60,17.80,1535200,11.34
2009-10-09,16.89,17.77,16.89,17.63,1770300,11.23
2009-10-08,16.68,16.68,16.68,16.68,000,10.62
2009-10-07,16.68,16.68,16.68,16.68,000,10.62
2009-10-06,16.68,16.68,16.68,16.68,000,10.62
2009-10-05,16.68,16.68,16.68,16.68,000,10.62
2009-10-02,16.68,16.68,16.68,16.68,000,10.62
2009-10-01,16.68,16.68,16.68,16.68,000,10.62
2009-09-30,16.60,17.28,16.55,16.68,1747100,10.62
2009-09-29,16.85,17.32,16.15,16.54,2064300,10.53
2009-09-28,18.60,18.88,17.18,17.30,1736600,11.02
2009-09-25,18.31,19.17,18.30,18.50,1983200,11.78
2009-09-24,18.61,19.18,18.03,18.66,2703800,11.89
2009-09-23,20.10,20.62,18.51,18.95,3772100,12.07
2009-09-22,21.73,21.92,20.50,20.50,4674700,13.06
2009-09-21,22.35,22.40,20.84,22.00,6519100,14.01
2009-09-18,20.99,23.10,20.61,22.90,14138900,14.59
2009-09-17,20.31,21.60,20.22,21.00,4619600,13.38
2009-09-16,20.21,20.48,19.37,20.34,3396200,12.96
2009-09-15,20.08,20.98,19.92,20.56,5833600,13.10
2009-09-14,19.66,20.30,19.50,20.08,3175300,12.79
2009-09-11,19.60,20.19,19.38,19.66,2450400,12.52
2009-09-10,19.90,20.15,19.61,19.65,2599200,12.52
2009-09-09,19.90,20.45,19.35,20.19,5179600,12.86
2009-09-08,20.28,20.44,19.80,20.08,4416100,12.79
2009-09-07,19.29,20.43,19.02,20.28,6134500,12.92
2009-09-04,19.00,20.00,18.86,19.38,4549200,12.34
2009-09-03,17.80,19.75,17.60,19.40,6632300,12.36
2009-09-02,17.28,18.33,16.07,18.20,4022500,11.59
2009-09-01,16.55,18.40,16.50,17.68,3986000,11.26
2009-08-31,18.55,18.55,16.99,17.02,3128900,10.84
2009-08-28,19.80,20.00,18.83,18.88,2943200,12.03
2009-08-27,18.78,20.50,18.49,20.10,5705700,12.80
2009-08-26,18.66,19.18,18.12,18.87,4101300,12.02
2009-08-25,20.48,20.50,18.61,18.68,5540900,11.90
2009-08-24,20.45,21.19,20.01,20.68,6068500,13.17
2009-08-21,19.39,21.30,19.02,20.63,10100700,13.14
2009-08-20,18.11,19.91,18.02,19.91,7158200,12.68
2009-08-19,17.86,18.15,17.10,18.10,3705200,11.53
2009-08-18,17.35,17.95,16.82,17.93,2819900,11.42
2009-08-17,19.30,19.40,17.71,17.71,3352000,11.28
2009-08-14,18.85,20.46,18.60,19.68,6450000,12.53
2009-08-13,18.90,19.36,18.55,18.89,2758100,12.03
2009-08-12,19.60,19.60,18.55,18.62,3479300,11.86
2009-08-11,20.40,20.40,19.51,19.63,3673600,12.50
2009-08-10,20.01,20.50,19.50,20.30,4490900,12.93
2009-08-07,20.40,20.97,19.80,19.95,5309800,12.71
2009-08-06,21.37,21.46,20.00,20.60,8273500,13.12
2009-08-05,23.80,24.36,21.80,21.96,9342500,13.99
2009-08-04,21.50,23.13,21.10,23.13,7819700,14.73
2009-08-03,19.68,21.98,19.02,21.03,8296700,13.39
2009-07-31,20.26,20.26,20.26,20.26,000,12.90
2009-07-30,18.50,20.30,17.87,20.26,10264000,12.90
2009-07-29,16.99,18.51,16.60,18.51,9875200,11.79
2009-07-28,16.80,16.99,16.25,16.83,6068500,10.72
2009-07-27,15.76,16.66,15.61,16.48,7258600,10.50
2009-07-24,15.50,16.40,15.28,15.88,7018800,10.11
2009-07-23,15.68,15.68,15.36,15.48,2597700,9.86
2009-07-22,15.19,15.50,15.02,15.40,3449600,9.81
2009-07-21,15.69,15.69,14.83,15.16,3426900,9.66
2009-07-20,15.25,15.69,15.10,15.52,4168600,9.89
2009-07-17,14.78,15.95,14.64,15.40,5838900,9.81
2009-07-16,15.00,15.03,14.65,14.80,2571700,9.43
2009-07-15,15.10,15.10,14.75,14.92,2747900,9.50
2009-07-14,14.78,14.97,14.70,14.86,2896600,9.46
2009-07-13,14.66,14.80,14.45,14.66,2285500,9.34
2009-07-10,14.58,14.80,14.48,14.58,2185900,9.29
2009-07-09,14.42,14.63,14.32,14.58,2266900,9.29
2009-07-08,14.59,14.68,14.21,14.48,2355500,9.22
2009-07-07,15.08,15.16,14.50,14.54,6207100,9.26
2009-07-06,14.17,15.10,14.00,15.02,6013900,9.57
2009-07-03,14.04,14.22,13.91,14.16,2084400,9.02
2009-07-02,13.98,14.18,13.86,14.00,1634100,8.92
2009-07-01,13.98,14.04,13.85,13.88,1278300,8.84
2009-06-30,14.10,14.15,13.82,13.88,1421900,8.84
2009-06-29,14.13,14.25,13.93,13.94,1868500,8.88
2009-06-26,14.50,14.50,13.99,14.13,1786900,9.00
2009-06-25,14.58,14.58,14.24,14.25,1944800,9.08
2009-06-24,14.47,14.67,14.30,14.47,3240800,9.22
2009-06-23,14.17,14.49,13.99,14.38,3487500,9.16
2009-06-22,14.15,14.25,13.93,14.20,1631700,9.04
2009-06-19,14.06,14.14,13.88,14.01,2267800,8.92
2009-06-18,14.14,14.29,13.75,13.96,2732400,8.89
2009-06-17,13.94,14.25,13.72,14.04,1424100,8.94
2009-06-16,13.98,13.98,13.70,13.85,1286300,8.82
2009-06-15,13.70,13.89,13.53,13.84,1414900,8.82
2009-06-12,14.50,14.50,13.42,13.70,2671000,8.73
2009-06-11,14.95,14.98,14.10,14.28,2673700,9.10
2009-06-10,14.40,14.80,13.99,14.65,3685500,9.33
2009-06-09,14.60,14.95,14.25,14.56,4358600,9.27
2009-06-08,13.70,14.70,13.58,14.51,5398000,9.24
2009-06-05,13.59,14.20,13.47,13.86,4943100,8.83
2009-06-04,13.66,13.74,13.31,13.59,1701300,8.66
2009-06-03,13.45,13.69,13.43,13.67,2231000,8.71
2009-06-02,13.63,13.85,13.52,13.56,1716800,8.64
2009-06-01,13.41,13.69,13.38,13.63,2233800,8.68
2009-05-29,13.42,13.42,13.42,13.42,000,8.55
2009-05-28,13.42,13.42,13.42,13.42,000,8.55
2009-05-27,13.43,13.67,13.28,13.42,813400,8.55
2009-05-26,13.44,13.79,13.36,13.40,1311900,8.53
2009-05-25,13.20,13.58,12.92,13.45,1653400,8.57
2009-05-22,13.98,13.98,13.30,13.52,1992100,8.61
2009-05-21,13.61,14.26,13.61,13.98,6172800,8.79
2009-05-20,13.60,13.74,13.31,13.59,1858900,8.54
2009-05-19,13.44,13.99,13.44,13.70,2349500,8.61
2009-05-18,13.45,13.55,13.12,13.43,1001200,8.44
2009-05-15,13.42,13.76,13.42,13.51,1440300,8.49
2009-05-14,13.85,13.88,13.40,13.66,2394400,8.59
2009-05-13,12.81,14.26,12.81,13.96,3552900,8.78
2009-05-12,12.63,13.09,12.50,12.97,1137400,8.15
2009-05-11,13.23,13.48,12.62,12.64,1685600,7.95
2009-05-08,13.37,13.50,13.22,13.30,1816900,8.36
2009-05-07,13.55,13.55,13.55,13.55,000,8.52
2009-05-06,13.88,13.88,13.50,13.55,2851300,8.52
2009-05-05,13.75,14.18,13.50,13.91,3821900,8.75
2009-05-04,13.30,14.00,13.28,13.85,6684600,8.71
2009-05-01,13.30,13.30,13.30,13.30,000,8.36
2009-04-30,13.20,13.49,12.70,13.30,4046700,8.36
2009-04-29,13.20,13.56,12.94,13.26,5032800,8.34
2009-04-28,12.18,13.69,12.04,13.20,5708600,8.30
2009-04-27,12.56,12.58,12.01,12.45,1773500,7.83
2009-04-24,12.39,12.68,12.31,12.56,1096100,7.90
2009-04-23,12.01,12.70,11.85,12.39,1582900,7.79
2009-04-22,12.73,13.15,11.60,12.02,2187700,7.56
2009-04-21,12.62,12.70,12.47,12.63,1665200,7.94
2009-04-20,12.32,12.98,12.30,12.71,1550300,7.99
2009-04-17,12.61,12.90,12.22,12.34,2980700,7.76
2009-04-16,13.22,13.49,12.84,12.90,2874400,8.11
2009-04-15,13.29,13.55,13.00,13.42,3162500,8.44
2009-04-14,12.89,13.36,12.61,13.22,3375000,8.31
2009-04-13,12.87,13.40,12.50,12.95,3490000,8.14
2009-04-10,12.11,12.79,11.96,12.74,2857000,8.01
2009-04-09,11.93,12.03,11.49,12.03,1918200,7.56
2009-04-08,12.35,12.35,11.68,11.78,2411400,7.41
2009-04-07,12.15,12.50,11.78,12.40,2696100,7.80
2009-04-06,12.26,12.26,12.26,12.26,000,7.71
2009-04-03,12.60,13.13,12.20,12.26,6142200,7.71
2009-04-02,11.80,12.28,11.63,12.20,3863100,7.67
2009-04-01,11.75,12.04,11.60,11.79,2769600,7.41
2009-03-31,11.52,11.66,11.21,11.58,1714500,7.28
2009-03-30,11.57,11.76,11.35,11.63,1772800,7.31
2009-03-27,11.66,11.66,11.42,11.47,1983000,7.21
2009-03-26,11.75,11.75,11.22,11.62,2311600,7.31
2009-03-25,11.90,11.90,11.37,11.37,2738900,7.15
2009-03-24,11.62,11.98,11.42,11.67,3843300,7.34
2009-03-23,11.40,11.50,11.16,11.33,2737600,7.12
2009-03-20,11.48,11.48,10.91,11.18,3182600,7.03
2009-03-19,11.40,11.59,10.98,11.28,3444900,7.09
2009-03-18,10.98,11.19,10.85,10.96,2851800,6.89
2009-03-17,10.49,11.05,10.30,10.85,2222700,6.82
2009-03-16,10.29,10.43,10.08,10.40,679400,6.54
2009-03-13,10.49,10.49,10.26,10.29,1215100,6.47
2009-03-12,10.40,10.48,10.00,10.31,830400,6.48
2009-03-11,10.58,10.65,10.22,10.44,1224300,6.56
2009-03-10,9.61,10.47,9.61,10.36,1329800,6.51
2009-03-09,10.75,10.95,9.92,9.97,1961500,6.27
2009-03-06,10.70,10.95,10.58,10.76,2059700,6.77
2009-03-05,10.79,11.38,10.20,11.11,4430200,6.99
2009-03-04,9.59,10.56,9.59,10.56,3577700,6.64
2009-03-03,9.68,9.87,9.30,9.60,1524100,6.04
2009-03-02,9.30,9.92,9.15,9.89,1779800,6.22
2009-02-27,10.16,10.40,9.64,9.64,2819900,6.06
2009-02-26,11.80,12.10,10.71,10.71,3636400,6.73
2009-02-25,12.00,12.75,11.60,11.90,6579500,7.48
2009-02-24,11.15,12.40,11.07,12.34,8884300,7.76
2009-02-23,10.88,11.39,10.66,11.29,3142000,7.10
2009-02-20,10.35,10.90,10.35,10.89,2060000,6.85
2009-02-19,10.00,10.43,10.00,10.40,1335600,6.54
2009-02-18,10.40,10.65,10.00,10.02,1650500,6.30
2009-02-17,10.88,10.96,10.40,10.54,2415200,6.63
2009-02-16,10.70,11.05,10.62,10.88,2652100,6.84
2009-02-13,10.25,10.88,10.25,10.74,3681000,6.75
2009-02-12,10.39,10.41,9.90,10.25,2325000,6.44
2009-02-11,10.20,10.75,10.11,10.35,3805100,6.51
2009-02-10,10.29,10.50,10.06,10.40,2717900,6.54
2009-02-09,10.02,10.40,9.84,10.33,3587300,6.49
2009-02-06,9.58,10.09,9.58,9.98,2613000,6.27
2009-02-05,9.90,9.93,9.40,9.54,2416500,6.00
2009-02-04,9.64,10.11,9.60,9.93,3449500,6.24
2009-02-03,9.34,9.67,9.34,9.64,2048100,6.06
2009-02-02,9.31,9.42,9.17,9.34,839000,5.87
2009-01-23,9.48,9.55,9.16,9.17,1403100,5.77
2009-01-22,9.47,9.70,9.40,9.48,1074500,5.96
2009-01-21,9.40,9.71,9.36,9.40,1355600,5.91
2009-01-20,9.66,9.75,9.48,9.63,1970400,6.05
2009-01-19,9.18,10.18,8.91,9.85,4257300,6.19
2009-01-16,9.45,9.70,9.25,9.28,3024800,5.83
2009-01-15,9.41,9.73,9.41,9.46,4826600,5.95
2009-01-14,8.97,8.97,8.97,8.97,000,5.64
2009-01-13,9.39,9.57,8.96,8.97,2595100,5.64
2009-01-12,9.78,10.16,9.54,9.56,4668200,6.01
2009-01-09,9.03,9.99,9.03,9.86,5632100,6.20
2009-01-08,8.85,9.45,8.71,9.16,3918900,5.76
2009-01-07,9.10,9.21,8.90,8.96,2893200,5.63
2009-01-06,8.72,9.44,8.63,9.20,4373000,5.78
2009-01-05,8.50,8.86,8.36,8.80,3751000,5.53
2009-01-02,8.50,8.50,8.50,8.50,000,5.34
2009-01-01,8.50,8.50,8.50,8.50,000,5.34
2008-12-31,7.90,8.98,7.86,8.50,5017100,5.34
2008-12-30,7.88,8.51,7.85,8.25,5271200,5.19
2008-12-29,8.05,8.05,7.48,7.74,796900,4.87
2008-12-26,7.95,8.18,7.81,8.00,1126700,5.03
2008-12-25,7.82,7.90,7.60,7.85,1074100,4.94
2008-12-24,7.91,8.00,7.57,7.66,1161900,4.82
2008-12-23,9.00,9.00,8.05,8.07,2343500,5.07
2008-12-22,8.67,9.12,8.55,8.90,2947900,5.60
2008-12-19,8.38,8.69,8.31,8.54,2006200,5.37
2008-12-18,8.11,8.42,8.11,8.37,1380800,5.26
2008-12-17,8.46,8.84,8.26,8.28,2192700,5.21
2008-12-16,8.31,8.50,8.05,8.44,2342800,5.31
2008-12-15,7.90,8.50,7.83,8.44,3665100,5.31
2008-12-12,7.72,8.00,7.52,7.91,2460500,4.97
2008-12-11,8.01,8.25,7.81,7.82,1345000,4.92
2008-12-10,7.80,8.22,7.75,8.15,1689500,5.12
2008-12-09,8.40,8.40,7.91,7.96,2323000,5.00
2008-12-08,8.15,8.58,8.03,8.50,2832100,5.34
2008-12-05,7.70,8.24,7.61,8.15,2892400,5.12
2008-12-04,7.80,7.95,7.55,7.70,3146000,4.84
2008-12-03,7.47,7.84,7.32,7.70,2807100,4.84
2008-12-02,7.57,7.98,7.21,7.40,4691900,4.65
2008-12-01,6.90,7.51,6.88,7.51,4168300,4.72
2008-11-28,6.60,6.83,6.43,6.83,1323300,4.29
2008-11-27,6.90,7.00,6.54,6.55,1520700,4.12
2008-11-26,6.35,6.53,6.35,6.49,723600,4.08
2008-11-25,6.32,6.73,6.20,6.34,895900,3.99
2008-11-24,6.71,6.87,6.22,6.23,1121600,3.92
2008-11-21,6.69,7.06,6.30,6.68,1776200,4.20
2008-11-20,6.90,7.17,6.70,6.95,2221400,4.37
2008-11-19,6.59,7.09,6.40,7.01,2481100,4.41
2008-11-18,7.26,7.33,6.62,6.62,2502000,4.16
2008-11-17,7.02,7.39,6.91,7.35,3346900,4.62
2008-11-14,6.65,7.27,6.41,7.15,4422800,4.50
2008-11-13,6.35,6.85,6.31,6.65,3052400,4.18
2008-11-12,6.32,6.55,6.24,6.53,2106600,4.11
2008-11-11,6.42,6.55,6.31,6.32,3074700,3.97
2008-11-10,6.06,6.78,6.01,6.60,5331800,4.15
2008-11-07,5.78,6.28,5.78,6.20,5725100,3.90
2008-11-06,5.26,5.71,5.20,5.71,2884500,3.59
2008-11-05,5.19,5.19,5.19,5.19,000,3.26
2008-11-04,5.20,5.22,5.10,5.19,265100,3.26
2008-11-03,5.07,5.27,5.07,5.20,138900,3.27
2008-10-31,5.22,5.34,5.16,5.21,393300,3.28
2008-10-30,5.07,5.29,5.01,5.22,381500,3.28
2008-10-29,5.35,5.35,5.10,5.14,402800,3.23
2008-10-28,5.01,5.25,5.01,5.22,372200,3.28
2008-10-27,5.60,5.60,5.04,5.07,447100,3.19
2008-10-24,5.68,5.72,5.55,5.60,230400,3.52
2008-10-23,5.59,5.69,5.44,5.68,241100,3.57
2008-10-22,5.70,5.82,5.62,5.66,322400,3.56
2008-10-21,5.88,5.98,5.70,5.78,552900,3.63
2008-10-20,5.46,5.90,5.45,5.88,354800,3.70
2008-10-17,5.35,5.53,5.35,5.46,157400,3.43
2008-10-16,5.70,5.70,5.33,5.38,303100,3.38
2008-10-15,5.84,5.89,5.73,5.84,274800,3.67
2008-10-14,6.30,6.45,5.95,5.95,454300,3.74
2008-10-13,5.85,6.12,5.71,6.12,396900,3.85
2008-10-10,6.58,6.58,6.07,6.07,1052500,3.82
2008-10-09,7.00,7.00,6.74,6.74,200900,4.24
2008-10-08,7.06,7.08,6.70,6.80,703300,4.28
2008-10-07,6.94,7.20,6.90,7.06,296400,4.44
2008-10-06,7.43,7.43,7.08,7.13,579900,4.48
2008-10-03,7.56,7.56,7.56,7.56,000,4.75
2008-10-02,7.56,7.56,7.56,7.56,000,4.75
2008-10-01,7.56,7.56,7.56,7.56,000,4.75
2008-09-30,7.56,7.56,7.56,7.56,000,4.75
2008-09-29,7.56,7.56,7.56,7.56,000,4.75
2008-09-26,7.58,7.75,7.43,7.56,1153500,4.75
2008-09-25,7.40,7.84,7.15,7.73,1625300,4.86
2008-09-24,6.93,7.44,6.76,7.36,1157900,4.63
2008-09-23,7.46,7.46,6.87,6.94,697400,4.36
2008-09-22,7.70,8.08,7.38,7.62,1849100,4.79
2008-09-19,7.28,7.38,7.19,7.38,794700,4.64
2008-09-18,6.84,6.88,6.32,6.71,524000,4.22
2008-09-17,7.20,7.23,6.92,6.98,493600,4.39
2008-09-16,7.40,7.40,7.03,7.15,449300,4.50
2008-09-15,7.37,7.37,7.37,7.37,000,4.63
2008-09-12,7.30,7.42,7.20,7.37,492400,4.63
2008-09-11,7.48,7.61,7.22,7.34,370500,4.61
2008-09-10,7.45,7.75,7.20,7.51,406700,4.72
2008-09-09,7.30,7.76,7.29,7.52,516400,4.73
2008-09-08,7.77,7.88,7.28,7.34,259800,4.61
2008-09-05,8.08,8.08,7.72,7.83,365900,4.92
2008-09-04,8.40,8.42,8.19,8.30,351600,5.22
2008-09-03,8.48,8.48,8.23,8.35,362200,5.25
2008-09-02,8.25,8.49,8.20,8.31,363300,5.22
2008-09-01,8.29,8.69,7.88,8.39,923500,5.28
2008-08-29,8.00,8.38,7.90,8.29,690800,5.21
2008-08-28,7.82,8.08,7.78,7.90,362500,4.97
2008-08-27,7.62,7.97,7.60,7.81,341900,4.91
2008-08-26,8.40,8.45,7.60,7.78,623100,4.89
2008-08-25,8.27,8.51,8.18,8.40,435000,5.28
2008-08-22,8.38,8.38,8.03,8.27,439600,5.20
2008-08-21,8.66,8.89,8.32,8.32,768100,5.23
2008-08-20,8.00,8.86,7.91,8.86,1090600,5.57
2008-08-19,8.00,8.25,7.90,8.11,474300,5.10
2008-08-18,9.12,9.12,8.15,8.15,733800,5.12
2008-08-15,8.94,9.18,8.65,9.05,548300,5.69
2008-08-14,8.84,9.00,8.77,8.88,444900,5.58
2008-08-13,9.01,9.15,8.40,8.89,664800,5.59
2008-08-12,9.20,9.38,9.03,9.10,515000,5.72
2008-08-11,10.48,10.48,9.29,9.29,958000,5.84
2008-08-08,11.29,11.32,10.30,10.32,782900,6.49
2008-08-07,11.20,11.54,11.12,11.36,599600,7.14
2008-08-06,11.04,11.27,10.91,11.17,512200,7.02
2008-08-05,11.36,11.36,11.00,11.00,411800,6.92
2008-08-04,11.58,11.58,11.20,11.25,474700,7.07
2008-08-01,11.35,11.75,11.14,11.58,686000,7.28
2008-07-31,12.01,12.15,11.50,11.51,680800,7.24
2008-07-30,12.16,12.38,11.95,12.00,707800,7.54
2008-07-29,12.27,12.27,11.87,11.97,902300,7.53
2008-07-28,12.20,12.56,12.20,12.32,878800,7.75
2008-07-25,12.40,12.58,11.99,12.22,1240500,7.68
2008-07-24,12.38,12.86,12.26,12.58,2491800,7.91
2008-07-23,12.02,12.50,11.80,12.45,1788200,7.83
2008-07-22,12.16,12.23,11.89,11.96,1309700,7.52
2008-07-21,11.59,12.21,11.38,12.16,1941600,7.65
2008-07-18,11.10,11.76,10.86,11.69,1070900,7.35
2008-07-17,11.10,11.39,10.77,10.86,818200,6.83
2008-07-16,11.98,11.98,10.83,11.01,1551400,6.92
2008-07-15,12.30,12.48,11.90,12.03,1243100,7.56
2008-07-14,11.96,12.33,11.90,12.19,968900,7.66
2008-07-11,12.40,12.49,11.96,12.10,1397200,7.61
2008-07-10,12.43,13.28,12.14,12.51,2816100,7.87
2008-07-09,12.14,12.63,12.02,12.56,2501600,7.90
2008-07-08,12.13,12.20,11.70,12.15,1821700,7.64
2008-07-07,11.62,12.18,11.38,12.09,1830900,7.60
2008-07-04,11.48,11.99,11.42,11.50,1432200,7.23
2008-07-03,11.03,11.69,10.80,11.48,1478700,7.22
2008-07-02,11.13,11.38,11.00,11.17,717000,7.02
2008-07-01,11.69,11.79,11.00,11.11,1072200,6.99
2008-06-30,10.67,11.77,10.67,11.68,1858500,7.34
2008-06-27,12.00,12.19,11.29,11.29,1798200,7.10
2008-06-26,11.96,12.77,11.80,12.54,3057800,7.88
2008-06-25,11.00,12.14,10.90,12.00,2578000,7.54
2008-06-24,11.30,11.58,10.56,11.23,2329300,7.06
2008-06-23,12.25,12.29,11.52,11.52,2520400,7.24
2008-06-20,13.62,14.80,12.80,12.80,4576500,8.05
2008-06-19,15.68,15.74,14.22,14.22,2791300,8.94
2008-06-18,15.40,16.80,14.29,15.80,5019100,9.93
2008-06-17,16.80,17.30,15.88,15.88,4858000,9.98
2008-06-16,16.19,17.17,15.06,16.95,6291000,10.66
2008-06-13,16.10,17.00,15.50,16.30,6157900,10.25
2008-06-12,15.48,16.85,15.28,16.26,9145800,10.22
2008-06-11,13.52,15.39,13.42,15.39,5086300,9.68
2008-06-10,14.60,15.20,13.63,13.99,2706500,8.80
2008-06-09,15.09,15.09,15.09,15.09,000,9.49
2008-06-06,14.40,15.70,14.40,15.09,4676700,9.49
2008-06-05,13.79,14.68,13.52,14.40,1631300,9.05
2008-06-04,14.01,14.16,13.40,13.60,527800,8.55
2008-06-03,13.78,14.18,13.78,14.01,813800,8.81
2008-06-02,13.73,13.95,13.33,13.78,458700,8.66
2008-05-30,13.75,13.92,13.60,13.73,468200,8.63
2008-05-29,14.18,14.18,13.75,13.76,580200,8.65
2008-05-28,13.96,14.30,13.62,14.22,824700,8.94
2008-05-27,13.73,14.26,13.61,14.10,360300,8.58
2008-05-26,13.83,14.15,13.70,13.74,507000,8.36
2008-05-23,14.01,14.35,13.50,14.00,664200,8.52
2008-05-22,14.00,14.52,13.97,14.12,855100,8.59
2008-05-21,14.10,14.40,13.55,14.23,1208400,8.66
2008-05-20,15.10,15.39,13.75,14.02,1132500,8.53
2008-05-19,15.10,15.30,14.75,15.18,872700,9.24
2008-05-16,15.49,15.88,15.00,15.21,1743400,9.26
2008-05-15,15.85,16.15,15.30,15.53,3879200,9.45
2008-05-14,14.30,15.77,14.30,15.77,4004300,9.60
2008-05-13,14.34,14.34,14.34,14.34,000,8.73
2008-05-12,13.85,14.50,13.53,14.34,1269300,8.73
2008-05-09,14.60,14.65,13.82,14.03,1310300,8.54
2008-05-08,14.24,14.48,14.02,14.46,918000,8.80
2008-05-07,15.00,15.22,14.22,14.32,1408500,8.72
2008-05-06,15.46,15.50,14.88,15.25,1906100,9.28
2008-05-05,15.20,15.50,14.71,15.48,1744400,9.42
2008-05-02,15.11,15.11,15.11,15.11,000,9.20
2008-05-01,15.11,15.11,15.11,15.11,000,9.20
2008-04-30,14.84,15.30,14.68,15.11,1447300,9.20
2008-04-29,14.33,14.66,14.11,14.60,1010600,8.89
2008-04-28,14.20,14.67,13.90,14.35,1299600,8.73
2008-04-25,13.91,14.86,13.88,14.40,2297800,8.76
2008-04-24,14.20,14.42,13.81,14.42,2358100,8.78
2008-04-23,12.20,13.51,12.20,13.11,1508600,7.98
2008-04-22,13.04,13.04,13.04,13.04,000,7.94
2008-04-21,13.87,13.91,12.96,13.04,691100,7.94
2008-04-18,13.71,13.94,12.80,12.96,584800,7.89
2008-04-17,14.75,14.81,13.72,13.72,878700,8.35
2008-04-16,14.80,14.90,14.26,14.40,460100,8.76
2008-04-15,14.05,14.90,13.91,14.80,343200,9.01
2008-04-14,15.03,15.25,14.08,14.20,603900,8.64
2008-04-11,14.95,15.61,14.80,15.49,822300,9.43
2008-04-10,14.52,14.88,14.02,14.87,516200,9.05
2008-04-09,15.40,15.60,14.70,14.70,770000,8.95
2008-04-08,15.50,15.96,15.39,15.53,819800,9.45
2008-04-07,14.35,15.59,14.14,15.57,617700,9.48
2008-04-04,14.65,14.65,14.65,14.65,000,8.92
2008-04-03,14.01,14.81,13.80,14.65,400700,8.92
2008-04-02,15.51,15.80,14.00,14.16,1006500,8.62
2008-04-01,17.10,17.19,15.39,15.39,887000,9.37
2008-03-31,16.92,17.58,16.68,17.10,752400,10.41
2008-03-28,16.51,17.30,16.06,17.26,697400,10.51
2008-03-27,17.48,17.55,16.50,16.68,926300,10.15
2008-03-26,17.34,18.31,17.02,17.75,1180900,10.80
2008-03-25,16.60,17.37,16.23,17.00,555000,10.35
2008-03-24,17.60,17.86,16.90,16.90,569500,10.29
2008-03-21,16.81,17.55,16.80,17.40,1055100,10.59
2008-03-20,16.00,17.29,15.50,17.00,979400,10.35
2008-03-19,16.00,16.95,16.00,16.40,981200,9.98
2008-03-18,16.85,17.41,15.45,15.90,1018100,9.68
2008-03-17,18.90,18.90,17.00,17.05,1174300,10.38
2008-03-14,18.50,19.19,18.32,18.80,936100,11.44
2008-03-13,19.20,19.28,18.25,18.51,1655000,11.27
2008-03-12,20.90,21.13,19.40,19.50,4110800,11.87
2008-03-11,20.50,21.00,20.00,20.96,410500,12.76
2008-03-10,21.48,21.57,20.50,20.61,556000,12.54
2008-03-07,22.25,22.40,21.22,21.66,638800,13.18
2008-03-06,22.18,22.18,22.18,22.18,000,13.50
2008-03-05,22.53,22.78,21.82,22.18,553600,13.50
2008-03-04,23.15,23.39,22.46,22.52,865100,13.71
2008-03-03,23.02,23.57,22.58,23.40,730900,14.24
2008-02-29,22.70,23.28,22.52,23.00,510400,14.00
2008-02-28,22.58,22.79,22.01,22.56,377500,13.73
2008-02-27,22.45,22.76,21.90,22.58,398000,13.74
2008-02-26,21.50,22.16,21.22,21.99,555600,13.38
2008-02-25,22.70,22.72,21.20,21.22,578700,12.92
2008-02-22,23.10,23.43,22.10,22.50,753700,13.70
2008-02-21,23.30,23.70,22.81,23.43,599600,14.26
2008-02-20,24.09,24.28,23.30,23.30,966000,14.18
2008-02-19,23.78,24.19,23.40,24.12,697200,14.68
2008-02-18,22.70,23.99,22.70,23.67,848400,14.41
2008-02-15,23.10,23.10,22.31,22.78,594000,13.87
2008-02-14,22.80,23.38,22.60,23.08,449000,14.05
2008-02-13,22.90,23.00,22.12,22.52,419900,13.71
2008-02-12,22.86,22.86,22.86,22.86,000,13.91
2008-02-11,22.86,22.86,22.86,22.86,000,13.91
2008-02-08,22.86,22.86,22.86,22.86,000,13.91
2008-02-07,22.86,22.86,22.86,22.86,000,13.91
2008-02-06,22.86,22.86,22.86,22.86,000,13.91
2008-02-05,23.00,23.48,22.50,22.86,739900,13.91
2008-02-04,21.90,23.21,21.60,23.18,1147600,14.11
2008-02-01,22.59,22.59,19.93,21.10,1007900,12.84
2008-01-31,23.36,23.39,22.08,22.10,532000,13.45
2008-01-30,23.08,23.98,23.00,23.31,943400,14.19
2008-01-29,23.00,23.60,21.50,22.93,1127600,13.96
2008-01-28,25.02,25.55,23.00,23.00,1720400,14.00
2008-01-25,25.70,26.08,25.22,25.55,1397900,15.55
2008-01-24,25.68,26.50,24.72,25.91,2077900,15.77
2008-01-23,24.15,25.96,24.00,25.54,2308500,15.55
2008-01-22,26.30,26.50,24.64,24.64,2183900,15.00
2008-01-21,29.90,29.90,27.32,27.38,3066900,16.67
2008-01-18,30.00,30.53,29.03,30.35,2901300,18.47
2008-01-17,27.30,30.58,27.30,29.80,4383200,18.14
2008-01-16,28.45,29.18,27.18,27.85,5206500,16.95
2008-01-15,25.96,28.23,25.92,28.23,5804300,17.18
2008-01-14,25.70,26.16,25.20,25.66,1975800,15.62
2008-01-11,25.03,25.20,24.44,24.98,1373500,15.20
2008-01-10,25.87,25.98,25.00,25.02,2172500,15.23
2008-01-09,25.01,25.88,24.80,25.76,1464500,15.68
2008-01-08,25.51,26.08,24.70,25.03,2417400,15.23
2008-01-07,25.59,26.10,25.00,25.75,1924300,15.67
2008-01-04,26.30,26.59,25.66,25.80,2445400,15.70
2008-01-03,26.14,27.40,26.11,26.30,5028600,16.01
2008-01-02,24.77,25.80,24.39,25.72,3162900,15.65
2008-01-01,24.38,24.38,24.38,24.38,000,14.84
2007-12-31,24.38,24.38,24.38,24.38,000,14.84
2007-12-28,25.00,25.40,24.20,24.38,2029900,14.84
2007-12-27,25.51,26.20,24.71,24.92,3879200,15.17
2007-12-26,24.75,25.57,24.65,25.20,3515300,15.34
2007-12-25,23.34,25.77,23.18,24.95,5377600,15.19
2007-12-24,23.40,24.35,23.00,23.50,4032200,14.30
2007-12-21,22.58,23.47,22.58,23.28,3023100,14.17
2007-12-20,22.08,23.17,21.80,22.97,2973700,13.98
2007-12-19,22.38,22.54,21.36,22.08,2968200,13.44
2007-12-18,23.70,23.70,23.70,23.70,000,14.43
2007-12-17,23.75,24.50,22.80,23.70,4998200,14.43
2007-12-14,23.60,25.49,22.80,23.75,7786600,14.46
2007-12-13,21.20,25.79,21.20,24.79,14403200,15.09
2007-12-12,20.00,23.88,19.03,23.52,18651300,14.32
